%YAML 1.1
%TAG !u! tag:unity3d.com,2011:
--- !u!114 &11400000
MonoBehaviour:
  m_ObjectHideFlags: 0
  m_CorrespondingSourceObject: {fileID: 0}
  m_PrefabInstance: {fileID: 0}
  m_PrefabAsset: {fileID: 0}
  m_GameObject: {fileID: 0}
  m_Enabled: 1
  m_EditorHideFlags: 0
  m_Script: {fileID: 11500000, guid: 03d4950186a14e64faf27da0534574fd, type: 3}
  m_Name: PharaohModel
  m_EditorClassIdentifier: 
  enemy: {fileID: 6633251603463936548, guid: 5a25dd667b4747047a2f02c43c2a3505, type: 3}
  Amount: 1
