%YAML 1.1
%TAG !u! tag:unity3d.com,2011:
--- !u!114 &11400000
MonoBehaviour:
  m_ObjectHideFlags: 0
  m_CorrespondingSourceObject: {fileID: 0}
  m_PrefabInstance: {fileID: 0}
  m_PrefabAsset: {fileID: 0}
  m_GameObject: {fileID: 0}
  m_Enabled: 1
  m_EditorHideFlags: 0
  m_Script: {fileID: 11500000, guid: 03d4950186a14e64faf27da0534574fd, type: 3}
  m_Name: SkeletonModel
  m_EditorClassIdentifier: 
  enemy: {fileID: 6411234226416674534, guid: 707778ff339ec304f96b5a21815106fd, type: 3}
  Amount: 10
