%YAML 1.1
%TAG !u! tag:unity3d.com,2011:
--- !u!21 &2100000
Material:
  serializedVersion: 6
  m_ObjectHideFlags: 0
  m_CorrespondingSourceObject: {fileID: 0}
  m_PrefabInstance: {fileID: 0}
  m_PrefabAsset: {fileID: 0}
  m_Name: Floor 1
  m_Shader: {fileID: 4800000, guid: 81d02e8644315b742b154842a3a2f98c, type: 3}
  m_ShaderKeywords: _DISPLACEMENT_LOCK_TILING_SCALE _HEIGHTMAP _HEIGHTMAP0 _HEIGHTMAP1
    _HEIGHT_BASED_BLEND _LAYER_MASK_VERTEX_COLOR_ADD _MASKMAP _MASKMAP0 _MASKMAP1
    _NORMALMAP _NORMALMAP0 _NORMALMAP1 _NORMALMAP_TANGENT_SPACE _NORMALMAP_TANGENT_SPACE0
    _NORMALMAP_TANGENT_SPACE1 _NORMALMAP_TANGENT_SPACE2 _NORMALMAP_TANGENT_SPACE3
    _PIXEL_DISPLACEMENT
  m_LightmapFlags: 4
  m_EnableInstancingVariants: 0
  m_DoubleSidedGI: 0
  m_CustomRenderQueue: 2450
  stringTagMap:
    MotionVector: User
  disabledShaderPasses:
  - DistortionVectors
  - MOTIONVECTORS
  - TransparentDepthPrepass
  - TransparentDepthPostpass
  - TransparentBackface
  m_SavedProperties:
    serializedVersion: 3
    m_TexEnvs:
    - Texture2D_14CD11C6:
        m_Texture: {fileID: 2800000, guid: 51871d1741442b547b98a8b834d8cd6a, type: 3}
        m_Scale: {x: 1, y: 1}
        m_Offset: {x: 0, y: 0}
    - Texture2D_45754974:
        m_Texture: {fileID: 2800000, guid: cabaa6e15b6f11d419e928cfd9648f6b, type: 3}
        m_Scale: {x: 1, y: 1}
        m_Offset: {x: 0, y: 0}
    - Texture2D_50A47CC5:
        m_Texture: {fileID: 2800000, guid: bece3332c883c424ab0711006448acff, type: 3}
        m_Scale: {x: 1, y: 1}
        m_Offset: {x: 0, y: 0}
    - Texture2D_7B3965E3:
        m_Texture: {fileID: 2800000, guid: 6e47df30746c9a9409cb860ef3cf865c, type: 3}
        m_Scale: {x: 1, y: 1}
        m_Offset: {x: 0, y: 0}
    - Texture2D_937A636B:
        m_Texture: {fileID: 0}
        m_Scale: {x: 1, y: 1}
        m_Offset: {x: 0, y: 0}
    - Texture2D_B743B018:
        m_Texture: {fileID: 2800000, guid: f5703967c8dc8414385d7ef0ccd337be, type: 3}
        m_Scale: {x: 1, y: 1}
        m_Offset: {x: 0, y: 0}
    - Texture2D_D65D17B9:
        m_Texture: {fileID: 0}
        m_Scale: {x: 1, y: 1}
        m_Offset: {x: 0, y: 0}
    - _AnisotropyMap:
        m_Texture: {fileID: 0}
        m_Scale: {x: 1, y: 1}
        m_Offset: {x: 0, y: 0}
    - _BaseColorMap:
        m_Texture: {fileID: 2800000, guid: f5703967c8dc8414385d7ef0ccd337be, type: 3}
        m_Scale: {x: 1, y: 1}
        m_Offset: {x: 0, y: 0}
    - _BaseColorMap0:
        m_Texture: {fileID: 2800000, guid: 51871d1741442b547b98a8b834d8cd6a, type: 3}
        m_Scale: {x: 1, y: 1}
        m_Offset: {x: 0, y: 0}
    - _BaseColorMap1:
        m_Texture: {fileID: 2800000, guid: f5703967c8dc8414385d7ef0ccd337be, type: 3}
        m_Scale: {x: 1, y: 1}
        m_Offset: {x: 0, y: 0}
    - _BaseColorMap2:
        m_Texture: {fileID: 0}
        m_Scale: {x: 1, y: 1}
        m_Offset: {x: 0, y: 0}
    - _BaseColorMap3:
        m_Texture: {fileID: 0}
        m_Scale: {x: 1, y: 1}
        m_Offset: {x: 0, y: 0}
    - _BentNormalMap:
        m_Texture: {fileID: 0}
        m_Scale: {x: 1, y: 1}
        m_Offset: {x: 0, y: 0}
    - _BentNormalMap0:
        m_Texture: {fileID: 0}
        m_Scale: {x: 1, y: 1}
        m_Offset: {x: 0, y: 0}
    - _BentNormalMap1:
        m_Texture: {fileID: 0}
        m_Scale: {x: 1, y: 1}
        m_Offset: {x: 0, y: 0}
    - _BentNormalMap2:
        m_Texture: {fileID: 0}
        m_Scale: {x: 1, y: 1}
        m_Offset: {x: 0, y: 0}
    - _BentNormalMap3:
        m_Texture: {fileID: 0}
        m_Scale: {x: 1, y: 1}
        m_Offset: {x: 0, y: 0}
    - _BentNormalMapOS:
        m_Texture: {fileID: 0}
        m_Scale: {x: 1, y: 1}
        m_Offset: {x: 0, y: 0}
    - _BentNormalMapOS0:
        m_Texture: {fileID: 0}
        m_Scale: {x: 1, y: 1}
        m_Offset: {x: 0, y: 0}
    - _BentNormalMapOS1:
        m_Texture: {fileID: 0}
        m_Scale: {x: 1, y: 1}
        m_Offset: {x: 0, y: 0}
    - _BentNormalMapOS2:
        m_Texture: {fileID: 0}
        m_Scale: {x: 1, y: 1}
        m_Offset: {x: 0, y: 0}
    - _BentNormalMapOS3:
        m_Texture: {fileID: 0}
        m_Scale: {x: 1, y: 1}
        m_Offset: {x: 0, y: 0}
    - _CoatMaskMap:
        m_Texture: {fileID: 0}
        m_Scale: {x: 1, y: 1}
        m_Offset: {x: 0, y: 0}
    - _DetailMap:
        m_Texture: {fileID: 0}
        m_Scale: {x: 1, y: 1}
        m_Offset: {x: 0, y: 0}
    - _DetailMap0:
        m_Texture: {fileID: 0}
        m_Scale: {x: 1, y: 1}
        m_Offset: {x: 0, y: 0}
    - _DetailMap1:
        m_Texture: {fileID: 0}
        m_Scale: {x: 1, y: 1}
        m_Offset: {x: 0, y: 0}
    - _DetailMap2:
        m_Texture: {fileID: 0}
        m_Scale: {x: 1, y: 1}
        m_Offset: {x: 0, y: 0}
    - _DetailMap3:
        m_Texture: {fileID: 0}
        m_Scale: {x: 1, y: 1}
        m_Offset: {x: 0, y: 0}
    - _DistortionVectorMap:
        m_Texture: {fileID: 0}
        m_Scale: {x: 1, y: 1}
        m_Offset: {x: 0, y: 0}
    - _EmissiveColorMap:
        m_Texture: {fileID: 0}
        m_Scale: {x: 1, y: 1}
        m_Offset: {x: 0, y: 0}
    - _HeightMap:
        m_Texture: {fileID: 2800000, guid: cabaa6e15b6f11d419e928cfd9648f6b, type: 3}
        m_Scale: {x: 1, y: 1}
        m_Offset: {x: 0, y: 0}
    - _HeightMap0:
        m_Texture: {fileID: 2800000, guid: 0fed31f9f90ca354da35952d29339905, type: 3}
        m_Scale: {x: 1, y: 1}
        m_Offset: {x: 0, y: 0}
    - _HeightMap1:
        m_Texture: {fileID: 2800000, guid: ada2e84e2f965c448850b40a80d60dde, type: 3}
        m_Scale: {x: 1, y: 1}
        m_Offset: {x: 0, y: 0}
    - _HeightMap2:
        m_Texture: {fileID: 0}
        m_Scale: {x: 1, y: 1}
        m_Offset: {x: 0, y: 0}
    - _HeightMap3:
        m_Texture: {fileID: 0}
        m_Scale: {x: 1, y: 1}
        m_Offset: {x: 0, y: 0}
    - _IridescenceMaskMap:
        m_Texture: {fileID: 0}
        m_Scale: {x: 1, y: 1}
        m_Offset: {x: 0, y: 0}
    - _IridescenceThicknessMap:
        m_Texture: {fileID: 0}
        m_Scale: {x: 1, y: 1}
        m_Offset: {x: 0, y: 0}
    - _LayerInfluenceMaskMap:
        m_Texture: {fileID: 0}
        m_Scale: {x: 1, y: 1}
        m_Offset: {x: 0, y: 0}
    - _LayerMaskMap:
        m_Texture: {fileID: 0}
        m_Scale: {x: 1, y: 1}
        m_Offset: {x: 0, y: 0}
    - _MainTex:
        m_Texture: {fileID: 0}
        m_Scale: {x: 1, y: 1}
        m_Offset: {x: 0, y: 0}
    - _MaskMap:
        m_Texture: {fileID: 2800000, guid: cabaa6e15b6f11d419e928cfd9648f6b, type: 3}
        m_Scale: {x: 1, y: 1}
        m_Offset: {x: 0, y: 0}
    - _MaskMap0:
        m_Texture: {fileID: 2800000, guid: 1739c447861aac24c838ce054924ae21, type: 3}
        m_Scale: {x: 1, y: 1}
        m_Offset: {x: 0, y: 0}
    - _MaskMap1:
        m_Texture: {fileID: 2800000, guid: b847965b7d34ff64b913e03e4d071dd8, type: 3}
        m_Scale: {x: 1, y: 1}
        m_Offset: {x: 0, y: 0}
    - _MaskMap2:
        m_Texture: {fileID: 0}
        m_Scale: {x: 1, y: 1}
        m_Offset: {x: 0, y: 0}
    - _MaskMap3:
        m_Texture: {fileID: 0}
        m_Scale: {x: 1, y: 1}
        m_Offset: {x: 0, y: 0}
    - _NormalMap:
        m_Texture: {fileID: 2800000, guid: 6e47df30746c9a9409cb860ef3cf865c, type: 3}
        m_Scale: {x: 1, y: 1}
        m_Offset: {x: 0, y: 0}
    - _NormalMap0:
        m_Texture: {fileID: 2800000, guid: bece3332c883c424ab0711006448acff, type: 3}
        m_Scale: {x: 1, y: 1}
        m_Offset: {x: 0, y: 0}
    - _NormalMap1:
        m_Texture: {fileID: 2800000, guid: 6e47df30746c9a9409cb860ef3cf865c, type: 3}
        m_Scale: {x: 1, y: 1}
        m_Offset: {x: 0, y: 0}
    - _NormalMap2:
        m_Texture: {fileID: 0}
        m_Scale: {x: 1, y: 1}
        m_Offset: {x: 0, y: 0}
    - _NormalMap3:
        m_Texture: {fileID: 0}
        m_Scale: {x: 1, y: 1}
        m_Offset: {x: 0, y: 0}
    - _NormalMapOS:
        m_Texture: {fileID: 0}
        m_Scale: {x: 1, y: 1}
        m_Offset: {x: 0, y: 0}
    - _NormalMapOS0:
        m_Texture: {fileID: 0}
        m_Scale: {x: 1, y: 1}
        m_Offset: {x: 0, y: 0}
    - _NormalMapOS1:
        m_Texture: {fileID: 0}
        m_Scale: {x: 1, y: 1}
        m_Offset: {x: 0, y: 0}
    - _NormalMapOS2:
        m_Texture: {fileID: 0}
        m_Scale: {x: 1, y: 1}
        m_Offset: {x: 0, y: 0}
    - _NormalMapOS3:
        m_Texture: {fileID: 0}
        m_Scale: {x: 1, y: 1}
        m_Offset: {x: 0, y: 0}
    - _ParallaxOcclusionMapping_3A07838D_Heightmap_2:
        m_Texture: {fileID: 0}
        m_Scale: {x: 1, y: 1}
        m_Offset: {x: 0, y: 0}
    - _SampleTexture2D_1999B8BC_Texture_1:
        m_Texture: {fileID: 0}
        m_Scale: {x: 1, y: 1}
        m_Offset: {x: 0, y: 0}
    - _SpecularColorMap:
        m_Texture: {fileID: 0}
        m_Scale: {x: 1, y: 1}
        m_Offset: {x: 0, y: 0}
    - _SubsurfaceMaskMap:
        m_Texture: {fileID: 0}
        m_Scale: {x: 1, y: 1}
        m_Offset: {x: 0, y: 0}
    - _SubsurfaceMaskMap0:
        m_Texture: {fileID: 0}
        m_Scale: {x: 1, y: 1}
        m_Offset: {x: 0, y: 0}
    - _SubsurfaceMaskMap1:
        m_Texture: {fileID: 0}
        m_Scale: {x: 1, y: 1}
        m_Offset: {x: 0, y: 0}
    - _SubsurfaceMaskMap2:
        m_Texture: {fileID: 0}
        m_Scale: {x: 1, y: 1}
        m_Offset: {x: 0, y: 0}
    - _SubsurfaceMaskMap3:
        m_Texture: {fileID: 0}
        m_Scale: {x: 1, y: 1}
        m_Offset: {x: 0, y: 0}
    - _TangentMap:
        m_Texture: {fileID: 0}
        m_Scale: {x: 1, y: 1}
        m_Offset: {x: 0, y: 0}
    - _TangentMapOS:
        m_Texture: {fileID: 0}
        m_Scale: {x: 1, y: 1}
        m_Offset: {x: 0, y: 0}
    - _ThicknessMap:
        m_Texture: {fileID: 0}
        m_Scale: {x: 1, y: 1}
        m_Offset: {x: 0, y: 0}
    - _ThicknessMap0:
        m_Texture: {fileID: 0}
        m_Scale: {x: 1, y: 1}
        m_Offset: {x: 0, y: 0}
    - _ThicknessMap1:
        m_Texture: {fileID: 0}
        m_Scale: {x: 1, y: 1}
        m_Offset: {x: 0, y: 0}
    - _ThicknessMap2:
        m_Texture: {fileID: 0}
        m_Scale: {x: 1, y: 1}
        m_Offset: {x: 0, y: 0}
    - _ThicknessMap3:
        m_Texture: {fileID: 0}
        m_Scale: {x: 1, y: 1}
        m_Offset: {x: 0, y: 0}
    - _TransmittanceColorMap:
        m_Texture: {fileID: 0}
        m_Scale: {x: 1, y: 1}
        m_Offset: {x: 0, y: 0}
    m_Floats:
    - Vector1_5F639FEC: 1.41
    - Vector1_6C6A4945: 2.5
    - Vector1_C7CBB42F: 0.403
    - Vector1_E8544073: 1.6
    - _AORemapMax: 1
    - _AORemapMax0: 1
    - _AORemapMax1: 1
    - _AORemapMax2: 1
    - _AORemapMax3: 1
    - _AORemapMin: 0.63199794
    - _AORemapMin0: 0
    - _AORemapMin1: 0
    - _AORemapMin2: 0
    - _AORemapMin3: 0
    - _ATDistance: 1
    - _AlbedoAffectEmissive: 0
    - _AlphaCutoff: 0.5
    - _AlphaCutoffEnable: 0
    - _AlphaCutoffPostpass: 0.5
    - _AlphaCutoffPrepass: 0.5
    - _AlphaCutoffShadow: 0.5
    - _AlphaDstBlend: 0
    - _AlphaSrcBlend: 1
    - _Anisotropy: 0
    - _BlendMode: 0
    - _CoatMask: 0
    - _CullMode: 2
    - _CullModeForward: 2
    - _Cutoff: 0.5
    - _DepthOffsetEnable: 0
    - _DetailAlbedoScale: 1
    - _DetailAlbedoScale0: 1
    - _DetailAlbedoScale1: 1
    - _DetailAlbedoScale2: 1
    - _DetailAlbedoScale3: 1
    - _DetailNormalScale: 1
    - _DetailNormalScale0: 1
    - _DetailNormalScale1: 1
    - _DetailNormalScale2: 1
    - _DetailNormalScale3: 1
    - _DetailSmoothnessScale: 1
    - _DetailSmoothnessScale0: 1
    - _DetailSmoothnessScale1: 1
    - _DetailSmoothnessScale2: 1
    - _DetailSmoothnessScale3: 1
    - _DiffusionProfile: 0
    - _DiffusionProfile0: 0
    - _DiffusionProfile1: 0
    - _DiffusionProfile2: 0
    - _DiffusionProfile3: 0
    - _DiffusionProfileHash: 0
    - _DiffusionProfileHash0: 0
    - _DiffusionProfileHash1: 0
    - _DiffusionProfileHash2: 0
    - _DiffusionProfileHash3: 0
    - _DisplacementLockObjectScale: 0
    - _DisplacementLockTilingScale: 1
    - _DisplacementMode: 2
    - _DistortionBlendMode: 0
    - _DistortionBlurBlendMode: 0
    - _DistortionBlurDstBlend: 1
    - _DistortionBlurRemapMax: 1
    - _DistortionBlurRemapMin: 0
    - _DistortionBlurScale: 1
    - _DistortionBlurSrcBlend: 1
    - _DistortionDepthTest: 1
    - _DistortionDstBlend: 1
    - _DistortionEnable: 0
    - _DistortionScale: 1
    - _DistortionSrcBlend: 1
    - _DistortionVectorBias: -1
    - _DistortionVectorScale: 2
    - _DoubleSidedEnable: 0
    - _DoubleSidedNormalMode: 1
    - _DstBlend: 0
    - _EmissiveColorMode: 1
    - _EmissiveExposureWeight: 1
    - _EmissiveIntensity: 1
    - _EmissiveIntensityUnit: 0
    - _EnableBlendModePreserveSpecularLighting: 1
    - _EnableFogOnTransparent: 1
    - _EnableGeometricSpecularAA: 0
    - _EnableSpecularOcclusion: 0
    - _EnergyConservingSpecularColor: 1
    - _HdrpVersion: 2
    - _HeightAmplitude: 0.024999999
    - _HeightAmplitude0: 0.02
    - _HeightAmplitude1: 0.02
    - _HeightAmplitude2: 0.02
    - _HeightAmplitude3: 0.02
    - _HeightCenter: 1
    - _HeightCenter0: 0.5
    - _HeightCenter1: 0.5
    - _HeightCenter2: 0.5
    - _HeightCenter3: 0.5
    - _HeightMapParametrization: 0
    - _HeightMapParametrization0: 0
    - _HeightMapParametrization1: 0
    - _HeightMapParametrization2: 0
    - _HeightMapParametrization3: 0
    - _HeightMax: 1
    - _HeightMax0: 1
    - _HeightMax1: 1
    - _HeightMax2: 1
    - _HeightMax3: 1
    - _HeightMin: -1
    - _HeightMin0: -1
    - _HeightMin1: -1
    - _HeightMin2: -1
    - _HeightMin3: -1
    - _HeightOffset: 0
    - _HeightOffset0: 0
    - _HeightOffset1: 0
    - _HeightOffset2: 0
    - _HeightOffset3: 0
    - _HeightPoMAmplitude: 2.5
    - _HeightPoMAmplitude0: 0
    - _HeightPoMAmplitude1: 4.31
    - _HeightPoMAmplitude2: 2
    - _HeightPoMAmplitude3: 2
    - _HeightTessAmplitude: 2
    - _HeightTessAmplitude0: 2
    - _HeightTessAmplitude1: 2
    - _HeightTessAmplitude2: 2
    - _HeightTessAmplitude3: 2
    - _HeightTessCenter: 0.5
    - _HeightTessCenter0: 0.5
    - _HeightTessCenter1: 0.5
    - _HeightTessCenter2: 0.5
    - _HeightTessCenter3: 0.5
    - _HeightTransition: 0.006
    - _InheritBaseColor1: 0
    - _InheritBaseColor2: 0
    - _InheritBaseColor3: 0
    - _InheritBaseHeight1: 0
    - _InheritBaseHeight2: 0
    - _InheritBaseHeight3: 0
    - _InheritBaseNormal1: 0
    - _InheritBaseNormal2: 0
    - _InheritBaseNormal3: 0
    - _InvTilingScale: 1
    - _InvTilingScale0: 1
    - _InvTilingScale1: 1
    - _InvTilingScale2: 1
    - _InvTilingScale3: 1
    - _Ior: 1
    - _IridescenceMask: 1
    - _IridescenceThickness: 1
    - _LayerCount: 2
    - _LinkDetailsWithBase: 1
    - _LinkDetailsWithBase0: 1
    - _LinkDetailsWithBase1: 1
    - _LinkDetailsWithBase2: 1
    - _LinkDetailsWithBase3: 1
    - _MaterialID: 1
    - _Metallic: 0.091
    - _Metallic0: 0
    - _Metallic1: 0.681
    - _Metallic2: 0
    - _Metallic3: 0
    - _NormalMapSpace: 0
    - _NormalMapSpace0: 0
    - _NormalMapSpace1: 0
    - _NormalMapSpace2: 0
    - _NormalMapSpace3: 0
    - _NormalScale: 2.5
    - _NormalScale0: 1
    - _NormalScale1: 1
    - _NormalScale2: 1
    - _NormalScale3: 1
    - _ObjectScaleAffectTile: 0
    - _OpacityAsDensity0: 0
    - _OpacityAsDensity1: 0
    - _OpacityAsDensity2: 0
    - _OpacityAsDensity3: 0
    - _PPDLodThreshold: 5
    - _PPDMaxSamples: 15
    - _PPDMinSamples: 5
    - _PPDPrimitiveLength: 1
    - _PPDPrimitiveWidth: 1
    - _ReceivesSSR: 1
    - _RefractionModel: 0
    - _SSRefractionProjectionModel: 0
    - _Smoothness: 0.5
    - _Smoothness0: 0.5
    - _Smoothness1: 0.125
    - _Smoothness2: 0.5
    - _Smoothness3: 0.5
    - _SmoothnessRemapMax: 0.1192788
    - _SmoothnessRemapMax0: 0.32720444
    - _SmoothnessRemapMax1: 0.61452657
    - _SmoothnessRemapMax2: 1
    - _SmoothnessRemapMax3: 1
    - _SmoothnessRemapMin: 0
    - _SmoothnessRemapMin0: 0
    - _SmoothnessRemapMin1: 0
    - _SmoothnessRemapMin2: 0
    - _SmoothnessRemapMin3: 0
    - _SpecularAAScreenSpaceVariance: 0.1
    - _SpecularAAThreshold: 0.2
    - _SrcBlend: 1
    - _StencilRef: 2
    - _StencilRefDepth: 0
    - _StencilRefDistortionVec: 64
    - _StencilRefGBuffer: 2
    - _StencilRefMV: 128
    - _StencilWriteMask: 3
    - _StencilWriteMaskDepth: 48
    - _StencilWriteMaskDistortionVec: 64
    - _StencilWriteMaskGBuffer: 51
    - _StencilWriteMaskMV: 176
    - _SubsurfaceMask: 1
    - _SubsurfaceMask0: 1
    - _SubsurfaceMask1: 1
    - _SubsurfaceMask2: 1
    - _SubsurfaceMask3: 1
    - _SupportDecals: 1
    - _SurfaceType: 0
    - _TexWorldScale: 1
    - _TexWorldScale0: 1
    - _TexWorldScale1: 1
    - _TexWorldScale2: 1
    - _TexWorldScale3: 1
    - _TexWorldScaleBlendMask: 1
    - _TexWorldScaleEmissive: 1
    - _Thickness: 1
    - _Thickness0: 1
    - _Thickness1: 1
    - _Thickness2: 1
    - _Thickness3: 1
    - _ThicknessMultiplier: 1
    - _TransmissionEnable: 1
    - _TransparentBackfaceEnable: 0
    - _TransparentCullMode: 2
    - _TransparentDepthPostpassEnable: 0
    - _TransparentDepthPrepassEnable: 0
    - _TransparentSortPriority: 0
    - _TransparentWritingMotionVec: 0
    - _UVBase: 0
    - _UVBase0: 0
    - _UVBase1: 0
    - _UVBase2: 0
    - _UVBase3: 0
    - _UVBlendMask: 0
    - _UVDetail: 0
    - _UVDetail0: 0
    - _UVDetail1: 0
    - _UVDetail2: 0
    - _UVDetail3: 0
    - _UVEmissive: 0
    - _UseDensityMode: 0
    - _UseEmissiveIntensity: 0
    - _UseHeightBasedBlend: 1
    - _UseMainLayerInfluence: 0
    - _UseShadowThreshold: 0
    - _VertexColorMode: 2
    - _ZTestDepthEqualForOpaque: 3
    - _ZTestGBuffer: 4
    - _ZTestModeDistortion: 4
    - _ZTestTransparent: 4
    - _ZWrite: 1
    m_Colors:
    - Vector3_35E62FE9: {r: 0, g: 1, b: 0, a: 0}
    - _BaseColor: {r: 1, g: 1, b: 1, a: 1}
    - _BaseColor0: {r: 1, g: 1, b: 1, a: 1}
    - _BaseColor1: {r: 1, g: 1, b: 1, a: 1}
    - _BaseColor2: {r: 1, g: 1, b: 1, a: 1}
    - _BaseColor3: {r: 1, g: 1, b: 1, a: 1}
    - _BaseColorMap0_MipInfo: {r: 0, g: 0, b: 0, a: 0}
    - _BaseColorMap_MipInfo: {r: 0, g: 0, b: 0, a: 0}
    - _Color: {r: 0, g: 0, b: 0, a: 1}
    - _DiffusionProfileAsset: {r: 0, g: 0, b: 0, a: 0}
    - _DiffusionProfileAsset0: {r: 0, g: 0, b: 0, a: 0}
    - _DiffusionProfileAsset1: {r: 0, g: 0, b: 0, a: 0}
    - _DiffusionProfileAsset2: {r: 0, g: 0, b: 0, a: 0}
    - _DiffusionProfileAsset3: {r: 0, g: 0, b: 0, a: 0}
    - _DoubleSidedConstants: {r: 1, g: 1, b: -1, a: 0}
    - _EmissionColor: {r: 1, g: 1, b: 1, a: 1}
    - _EmissiveColor: {r: 0, g: 0, b: 0, a: 1}
    - _EmissiveColorLDR: {r: 0, g: 0, b: 0, a: 1}
    - _InvPrimScale: {r: 1, g: 1, b: 0, a: 0}
    - _IridescenceThicknessRemap: {r: 0, g: 1, b: 0, a: 0}
    - _SpecularColor: {r: 1, g: 1, b: 1, a: 1}
    - _ThicknessRemap: {r: 0, g: 1, b: 0, a: 0}
    - _ThicknessRemap0: {r: 0, g: 1, b: 0, a: 0}
    - _ThicknessRemap1: {r: 0, g: 1, b: 0, a: 0}
    - _ThicknessRemap2: {r: 0, g: 1, b: 0, a: 0}
    - _ThicknessRemap3: {r: 0, g: 1, b: 0, a: 0}
    - _TransmittanceColor: {r: 1, g: 1, b: 1, a: 1}
    - _UVDetailsMappingMask: {r: 1, g: 0, b: 0, a: 0}
    - _UVDetailsMappingMask0: {r: 1, g: 0, b: 0, a: 0}
    - _UVDetailsMappingMask1: {r: 1, g: 0, b: 0, a: 0}
    - _UVDetailsMappingMask2: {r: 1, g: 0, b: 0, a: 0}
    - _UVDetailsMappingMask3: {r: 1, g: 0, b: 0, a: 0}
    - _UVMappingMask: {r: 1, g: 0, b: 0, a: 0}
    - _UVMappingMask0: {r: 1, g: 0, b: 0, a: 0}
    - _UVMappingMask1: {r: 1, g: 0, b: 0, a: 0}
    - _UVMappingMask2: {r: 1, g: 0, b: 0, a: 0}
    - _UVMappingMask3: {r: 1, g: 0, b: 0, a: 0}
    - _UVMappingMaskBlendMask: {r: 1, g: 0, b: 0, a: 0}
    - _UVMappingMaskEmissive: {r: 1, g: 0, b: 0, a: 0}
