%YAML 1.1
%TAG !u! tag:unity3d.com,2011:
--- !u!114 &11400000
MonoBehaviour:
  m_ObjectHideFlags: 0
  m_CorrespondingSourceObject: {fileID: 0}
  m_PrefabInstance: {fileID: 0}
  m_PrefabAsset: {fileID: 0}
  m_GameObject: {fileID: 0}
  m_Enabled: 1
  m_EditorHideFlags: 0
  m_Script: {fileID: 11500000, guid: e5a0c105b45038a4d92903b1bfa6c07a, type: 3}
  m_Name: JudgmentOfRa
  m_EditorClassIdentifier: 
  name: Judgment of Ra
  infiniteAmmo: 0
  startingAmmo: 16
  singleReload: 0
  throwable: 0
  reusable: 0
  dualWieldable: 0
  accuracy: 1
  constantFire: 0
  projectileAdjust: 1
  fireFOVChange: 2
  fireFOVSpeed: 15
  motorIndex: 1
  vibrationIntensity: 1
  vibrationDuration: 0.075
  upgradeCost: 401f0000e02e0000803e0000204e0000
  damage:
  - Infinity
  clipSize: 
  ammoCapacity: 04000000080000000c0000001000000014000000
  deathmatchDamage: Infinity
  deathmatchAccuracy: 1
  deathmatchClipSize: 0
  deathmatchAmmoCapacity: 5
  projectile: {fileID: 1949937854489198781, guid: cfa9d991d0e151e43a4dd6cc8c37d771,
    type: 3}
  projectileForce: 3000
  projectileFireCount: 1
  projectileDestroyTimer: 5
  damageResistance: 0
  muzzleFlash: {fileID: 0}
  muzzleDestroyTimer: 0.5
  fire:
  - {fileID: 8300000, guid: d92baa9a7a082a440ab85c7882bf406d, type: 3}
  unload: []
  reload: []
  equip: []
  unequip: []
  extra1: {fileID: 8300000, guid: 9d06def985ff53746ab088acfd9e0524, type: 3}
  extra2: {fileID: 0}
  extra3: {fileID: 0}
