%YAML 1.1
%TAG !u! tag:unity3d.com,2011:
--- !u!114 &11400000
MonoBehaviour:
  m_ObjectHideFlags: 0
  m_CorrespondingSourceObject: {fileID: 0}
  m_PrefabInstance: {fileID: 0}
  m_PrefabAsset: {fileID: 0}
  m_GameObject: {fileID: 0}
  m_Enabled: 1
  m_EditorHideFlags: 0
  m_Script: {fileID: 11500000, guid: e5a0c105b45038a4d92903b1bfa6c07a, type: 3}
  m_Name: RocketLauncher
  m_EditorClassIdentifier: 
  name: Rocket Launcher
  infiniteAmmo: 0
  startingAmmo: 19
  singleReload: 0
  throwable: 0
  reusable: 0
  dualWieldable: 0
  accuracy: 1
  constantFire: 0
  projectileAdjust: 1
  fireFOVChange: 3
  fireFOVSpeed: 15
  motorIndex: 1
  vibrationIntensity: 1
  vibrationDuration: 0.4
  upgradeCost: a00f000070170000401f0000e02e0000
  damage:
  - 200
  - 240
  - 280
  - 320
  - 360
  clipSize: 01000000
  ammoCapacity: 04000000090000000e0000001300000018000000
  deathmatchDamage: 150
  deathmatchAccuracy: 1
  deathmatchClipSize: 1
  deathmatchAmmoCapacity: 4
  projectile: {fileID: 1856223520818524584, guid: 6d25b9e9a88ec474a9432f8983c835b7,
    type: 3}
  projectileForce: 2500
  projectileFireCount: 1
  projectileDestroyTimer: 10
  damageResistance: 0
  muzzleFlash: {fileID: 1782395880954752, guid: e802c9c5b472d2345a808aca4bc81014,
    type: 3}
  muzzleDestroyTimer: 1
  fire:
  - {fileID: 8300000, guid: b761da7bf5d55bd4bbd80d7bb74b1e53, type: 3}
  unload: []
  reload:
  - {fileID: 8300000, guid: 8b425ccb2d78846408fe732ca006d96e, type: 3}
  equip:
  - {fileID: 8300000, guid: 16a3f8e7660532f42b032391f9f2a4f6, type: 3}
  unequip:
  - {fileID: 8300000, guid: a559e7c86a86bfa419c4451105af3330, type: 3}
  extra1: {fileID: 0}
  extra2: {fileID: 0}
  extra3: {fileID: 0}
