%YAML 1.1
%TAG !u! tag:unity3d.com,2011:
--- !u!1045 &1
EditorBuildSettings:
  m_ObjectHideFlags: 0
  serializedVersion: 2
  m_Scenes:
  - enabled: 1
    path: Assets/Resources/Scenes/Menu.unity
    guid: ae173be2cd56f5c47990d8419187e0ea
  - enabled: 1
    path: Assets/Resources/Scenes/Master Scene.unity
    guid: 1d95ba46dd7c4164f86b1f3299f87443
  - enabled: 1
    path: Assets/Resources/Scenes/Arena.unity
    guid: 6eab50ce83c4b5843b4db72630c55161
  - enabled: 1
    path: Assets/Resources/Scenes/Cutscene.unity
    guid: 5a86e97d21b881e4c96ec01844fea779
  - enabled: 1
    path: Assets/Resources/Scenes/WinState.unity
    guid: 10bfe90a5507f9a44905ac5e9bdc0109
