%YAML 1.1
%TAG !u! tag:unity3d.com,2011:
--- !u!1 &8759977535673467955
GameObject:
  m_ObjectHideFlags: 0
  m_CorrespondingSourceObject: {fileID: 0}
  m_PrefabInstance: {fileID: 0}
  m_PrefabAsset: {fileID: 0}
  serializedVersion: 6
  m_Component:
  - component: {fileID: 8759977535673467953}
  - component: {fileID: 8759977535673467952}
  m_Layer: 0
  m_Name: Bullet Decal
  m_TagString: Untagged
  m_Icon: {fileID: 0}
  m_NavMeshLayer: 0
  m_StaticEditorFlags: 0
  m_IsActive: 1
--- !u!4 &8759977535673467953
Transform:
  m_ObjectHideFlags: 0
  m_CorrespondingSourceObject: {fileID: 0}
  m_PrefabInstance: {fileID: 0}
  m_PrefabAsset: {fileID: 0}
  m_GameObject: {fileID: 8759977535673467955}
  m_LocalRotation: {x: 0.7071068, y: -0, z: -0, w: 0.7071068}
  m_LocalPosition: {x: 5.849, y: 1.35, z: 0.647}
  m_LocalScale: {x: 1, y: 1, z: 1}
  m_Children: []
  m_Father: {fileID: 0}
  m_RootOrder: 0
  m_LocalEulerAnglesHint: {x: 0, y: 0, z: 0}
--- !u!114 &8759977535673467952
MonoBehaviour:
  m_ObjectHideFlags: 0
  m_CorrespondingSourceObject: {fileID: 0}
  m_PrefabInstance: {fileID: 0}
  m_PrefabAsset: {fileID: 0}
  m_GameObject: {fileID: 8759977535673467955}
  m_Enabled: 1
  m_EditorHideFlags: 0
  m_Script: {fileID: 11500000, guid: f19d9143a39eb3b46bc4563e9889cfbd, type: 3}
  m_Name: 
  m_EditorClassIdentifier: 
  m_Material: {fileID: 2100000, guid: a27dc0de91728864d9308a5735345aa8, type: 2}
  m_DrawDistance: 10
  m_FadeScale: 1
  m_UVScale: {x: 1, y: 1}
  m_UVBias: {x: 0, y: 0}
  m_AffectsTransparency: 1
  m_Offset: {x: 0, y: 0, z: -0}
  m_Size: {x: 0.2, y: 0.2, z: 0.1}
  m_FadeFactor: 1
  m_Version: 1
