%YAML 1.1
%TAG !u! tag:unity3d.com,2011:
--- !u!114 &11400000
MonoBehaviour:
  m_ObjectHideFlags: 0
  m_CorrespondingSourceObject: {fileID: 0}
  m_PrefabInstance: {fileID: 0}
  m_PrefabAsset: {fileID: 0}
  m_GameObject: {fileID: 0}
  m_Enabled: 1
  m_EditorHideFlags: 0
  m_Script: {fileID: 11500000, guid: 0971622fb4b4c9b4084ee8f80981914c, type: 3}
  m_Name: BossWave
  m_EditorClassIdentifier: 
  enemyList:
  - {fileID: 11400000, guid: 18163b9165138644cb8527a6d8f10ff8, type: 2}
  - {fileID: 11400000, guid: f03b768bfffbc2048a89dc5d7f0d79d2, type: 2}
  - {fileID: 11400000, guid: da68be517fbde364cbf25f6ffe3ade3a, type: 2}
  spawnRate: 3
