%YAML 1.1
%TAG !u! tag:unity3d.com,2011:
--- !u!78 &1
TagManager:
  serializedVersion: 2
  tags:
  - Enemy
  - Bullet
  - Head
  - Shield
  layers:
  - Default
  - TransparentFX
  - Ignore Raycast
  - 
  - Water
  - UI
  - 
  - 
  - PostProcessing
  - Bullet
  - 
  - FlareNoCollide
  - Interact
  - Player
  - Room
  - PhysicsEffects
  - Player1
  - Player2
  - Player3
  - Player4
  - NetPlayer
  - Weapon1
  - Weapon2
  - Weapon3
  - Weapon4
  - Shield
  - 
  - 
  - 
  - 
  - 
  - 
  m_SortingLayers:
  - name: Default
    uniqueID: 0
    locked: 0
