%YAML 1.1
%TAG !u! tag:unity3d.com,2011:
--- !u!74 &7400000
AnimationClip:
  m_ObjectHideFlags: 0
  m_CorrespondingSourceObject: {fileID: 0}
  m_PrefabInstance: {fileID: 0}
  m_PrefabAsset: {fileID: 0}
  m_Name: ThompsonUnequip
  serializedVersion: 6
  m_Legacy: 0
  m_Compressed: 0
  m_UseHighQualityCurve: 1
  m_RotationCurves: []
  m_CompressedRotationCurves: []
  m_EulerCurves:
  - curve:
      serializedVersion: 2
      m_Curve:
      - serializedVersion: 3
        time: 0
        value: {x: 0, y: 0, z: 0}
        inSlope: {x: 0, y: 0, z: 0}
        outSlope: {x: 0, y: 0, z: 0}
        tangentMode: 0
        weightedMode: 0
        inWeight: {x: 0.33333334, y: 0.33333334, z: 0.33333334}
        outWeight: {x: 0.33333334, y: 0.33333334, z: 0.33333334}
      - serializedVersion: 3
        time: 0.33333334
        value: {x: 0, y: -49.493336, z: -49.493336}
        inSlope: {x: 0, y: 0, z: 0}
        outSlope: {x: 0, y: 0, z: 0}
        tangentMode: 0
        weightedMode: 0
        inWeight: {x: 0.33333334, y: 0.33333334, z: 0.33333334}
        outWeight: {x: 0.33333334, y: 0.33333334, z: 0.33333334}
      m_PreInfinity: 2
      m_PostInfinity: 2
      m_RotationOrder: 4
    path: Thompson_Sub_Mesh
  - curve:
      serializedVersion: 2
      m_Curve:
      - serializedVersion: 3
        time: 0
        value: {x: 75.507, y: -17.739, z: 60.350002}
        inSlope: {x: 0, y: 0, z: 0}
        outSlope: {x: 0, y: 0, z: 0}
        tangentMode: 0
        weightedMode: 0
        inWeight: {x: 0.33333334, y: 0.33333334, z: 0.33333334}
        outWeight: {x: 0.33333334, y: 0.33333334, z: 0.33333334}
      m_PreInfinity: 2
      m_PostInfinity: 2
      m_RotationOrder: 4
    path: Thompson_Sub_Mesh/Arms/Root_Jnt/Waist_Jnt/Spine_01_Jnt/Spine_02_Jnt/Clavicle_R_Jnt/Shoulder_R_Jnt/Elbow_R_Jnt/Wrist_R_Jnt/FingerMiddle_R_01_Jnt
  - curve:
      serializedVersion: 2
      m_Curve:
      - serializedVersion: 3
        time: 0
        value: {x: 63.878002, y: -36.472, z: 61.072002}
        inSlope: {x: 0, y: 0, z: 0}
        outSlope: {x: 0, y: 0, z: 0}
        tangentMode: 0
        weightedMode: 0
        inWeight: {x: 0.33333334, y: 0.33333334, z: 0.33333334}
        outWeight: {x: 0.33333334, y: 0.33333334, z: 0.33333334}
      m_PreInfinity: 2
      m_PostInfinity: 2
      m_RotationOrder: 4
    path: Thompson_Sub_Mesh/Arms/Root_Jnt/Waist_Jnt/Spine_01_Jnt/Spine_02_Jnt/Clavicle_R_Jnt/Shoulder_R_Jnt/Elbow_R_Jnt/Wrist_R_Jnt/FingerPinky_R_01_Jnt
  - curve:
      serializedVersion: 2
      m_Curve:
      - serializedVersion: 3
        time: 0
        value: {x: 76.491005, y: -61.203003, z: -26.046001}
        inSlope: {x: 0, y: 0, z: 0}
        outSlope: {x: 0, y: 0, z: 0}
        tangentMode: 0
        weightedMode: 0
        inWeight: {x: 0.33333334, y: 0.33333334, z: 0.33333334}
        outWeight: {x: 0.33333334, y: 0.33333334, z: 0.33333334}
      m_PreInfinity: 2
      m_PostInfinity: 2
      m_RotationOrder: 4
    path: Thompson_Sub_Mesh/Arms/Root_Jnt/Waist_Jnt/Spine_01_Jnt/Spine_02_Jnt/Clavicle_R_Jnt/Shoulder_R_Jnt/Elbow_R_Jnt/Wrist_R_Jnt/FingerPointer_R_01_Jnt
  - curve:
      serializedVersion: 2
      m_Curve:
      - serializedVersion: 3
        time: 0
        value: {x: 0.41300002, y: -0.84300005, z: 25.342001}
        inSlope: {x: 0, y: 0, z: 0}
        outSlope: {x: 0, y: 0, z: 0}
        tangentMode: 0
        weightedMode: 0
        inWeight: {x: 0.33333334, y: 0.33333334, z: 0.33333334}
        outWeight: {x: 0.33333334, y: 0.33333334, z: 0.33333334}
      m_PreInfinity: 2
      m_PostInfinity: 2
      m_RotationOrder: 4
    path: Thompson_Sub_Mesh/Arms/Root_Jnt/Waist_Jnt/Spine_01_Jnt/Spine_02_Jnt/Clavicle_R_Jnt/Shoulder_R_Jnt/Elbow_R_Jnt/Wrist_R_Jnt/FingerPointer_R_01_Jnt/FingerPointer_R_02_Jnt
  - curve:
      serializedVersion: 2
      m_Curve:
      - serializedVersion: 3
        time: 0
        value: {x: -0.77800006, y: -0.24300002, z: 21.134}
        inSlope: {x: 0, y: 0, z: 0}
        outSlope: {x: 0, y: 0, z: 0}
        tangentMode: 0
        weightedMode: 0
        inWeight: {x: 0.33333334, y: 0.33333334, z: 0.33333334}
        outWeight: {x: 0.33333334, y: 0.33333334, z: 0.33333334}
      m_PreInfinity: 2
      m_PostInfinity: 2
      m_RotationOrder: 4
    path: Thompson_Sub_Mesh/Arms/Root_Jnt/Waist_Jnt/Spine_01_Jnt/Spine_02_Jnt/Clavicle_R_Jnt/Shoulder_R_Jnt/Elbow_R_Jnt/Wrist_R_Jnt/FingerPointer_R_01_Jnt/FingerPointer_R_02_Jnt/FingerPointer_R_03_Jnt
  - curve:
      serializedVersion: 2
      m_Curve:
      - serializedVersion: 3
        time: 0
        value: {x: 69.990005, y: -21.143002, z: 70.911}
        inSlope: {x: 0, y: 0, z: 0}
        outSlope: {x: 0, y: 0, z: 0}
        tangentMode: 0
        weightedMode: 0
        inWeight: {x: 0.33333334, y: 0.33333334, z: 0.33333334}
        outWeight: {x: 0.33333334, y: 0.33333334, z: 0.33333334}
      m_PreInfinity: 2
      m_PostInfinity: 2
      m_RotationOrder: 4
    path: Thompson_Sub_Mesh/Arms/Root_Jnt/Waist_Jnt/Spine_01_Jnt/Spine_02_Jnt/Clavicle_R_Jnt/Shoulder_R_Jnt/Elbow_R_Jnt/Wrist_R_Jnt/FingerRing_R_01_Jnt
  - curve:
      serializedVersion: 2
      m_Curve:
      - serializedVersion: 3
        time: 0
        value: {x: -20.765001, y: 113.76101, z: 139.81201}
        inSlope: {x: 0, y: 0, z: 0}
        outSlope: {x: 0, y: 0, z: 0}
        tangentMode: 0
        weightedMode: 0
        inWeight: {x: 0.33333334, y: 0.33333334, z: 0.33333334}
        outWeight: {x: 0.33333334, y: 0.33333334, z: 0.33333334}
      m_PreInfinity: 2
      m_PostInfinity: 2
      m_RotationOrder: 4
    path: Thompson_Sub_Mesh/Arms/Root_Jnt/Waist_Jnt/Spine_01_Jnt/Spine_02_Jnt/Clavicle_R_Jnt/Shoulder_R_Jnt/Elbow_R_Jnt/Wrist_R_Jnt/FingerThumb_R_01_Jnt
  m_PositionCurves:
  - curve:
      serializedVersion: 2
      m_Curve:
      - serializedVersion: 3
        time: 0
        value: {x: 0.321, y: 0, z: 0}
        inSlope: {x: 0, y: 0, z: 0}
        outSlope: {x: 0, y: 0, z: 0}
        tangentMode: 0
        weightedMode: 0
        inWeight: {x: 0.33333334, y: 0.33333334, z: 0.33333334}
        outWeight: {x: 0.33333334, y: 0.33333334, z: 0.33333334}
      - serializedVersion: 3
        time: 0.33333334
        value: {x: 0.117527395, y: -0.26121482, z: 0.112734824}
        inSlope: {x: 0, y: 0, z: 0}
        outSlope: {x: 0, y: 0, z: 0}
        tangentMode: 0
        weightedMode: 0
        inWeight: {x: 0.33333334, y: 0.33333334, z: 0.33333334}
        outWeight: {x: 0.33333334, y: 0.33333334, z: 0.33333334}
      m_PreInfinity: 2
      m_PostInfinity: 2
      m_RotationOrder: 4
    path: Thompson_Sub_Mesh
  - curve:
      serializedVersion: 2
      m_Curve:
      - serializedVersion: 3
        time: 0
        value: {x: -0.100918084, y: 0.0812639, z: 0.08585095}
        inSlope: {x: 0, y: 0, z: 0}
        outSlope: {x: 0, y: 0, z: 0}
        tangentMode: 0
        weightedMode: 0
        inWeight: {x: 0.33333334, y: 0.33333334, z: 0.33333334}
        outWeight: {x: 0.33333334, y: 0.33333334, z: 0.33333334}
      m_PreInfinity: 2
      m_PostInfinity: 2
      m_RotationOrder: 4
    path: Thompson_Sub_Mesh/Arms/Root_Jnt/Waist_Jnt/Spine_01_Jnt/Spine_02_Jnt/Clavicle_R_Jnt
  - curve:
      serializedVersion: 2
      m_Curve:
      - serializedVersion: 3
        time: 0
        value: {x: 0.12508088, y: 0.00036542444, z: 0.026090896}
        inSlope: {x: 0, y: 0, z: 0}
        outSlope: {x: 0, y: 0, z: 0}
        tangentMode: 0
        weightedMode: 0
        inWeight: {x: 0.33333334, y: 0.33333334, z: 0.33333334}
        outWeight: {x: 0.33333334, y: 0.33333334, z: 0.33333334}
      m_PreInfinity: 2
      m_PostInfinity: 2
      m_RotationOrder: 4
    path: Thompson_Sub_Mesh/Arms/Root_Jnt/Waist_Jnt/Spine_01_Jnt/Spine_02_Jnt/Clavicle_R_Jnt/Shoulder_R_Jnt/Elbow_R_Jnt/Wrist_R_Jnt/FingerMiddle_R_01_Jnt
  - curve:
      serializedVersion: 2
      m_Curve:
      - serializedVersion: 3
        time: 0
        value: {x: 0.112219356, y: -0.0633391, z: 0.03770923}
        inSlope: {x: 0, y: 0, z: 0}
        outSlope: {x: 0, y: 0, z: 0}
        tangentMode: 0
        weightedMode: 0
        inWeight: {x: 0.33333334, y: 0.33333334, z: 0.33333334}
        outWeight: {x: 0.33333334, y: 0.33333334, z: 0.33333334}
      m_PreInfinity: 2
      m_PostInfinity: 2
      m_RotationOrder: 4
    path: Thompson_Sub_Mesh/Arms/Root_Jnt/Waist_Jnt/Spine_01_Jnt/Spine_02_Jnt/Clavicle_R_Jnt/Shoulder_R_Jnt/Elbow_R_Jnt/Wrist_R_Jnt/FingerPinky_R_01_Jnt
  - curve:
      serializedVersion: 2
      m_Curve:
      - serializedVersion: 3
        time: 0
        value: {x: 0.12813453, y: 0.03427585, z: 0.023389824}
        inSlope: {x: 0, y: 0, z: 0}
        outSlope: {x: 0, y: 0, z: 0}
        tangentMode: 0
        weightedMode: 0
        inWeight: {x: 0.33333334, y: 0.33333334, z: 0.33333334}
        outWeight: {x: 0.33333334, y: 0.33333334, z: 0.33333334}
      m_PreInfinity: 2
      m_PostInfinity: 2
      m_RotationOrder: 4
    path: Thompson_Sub_Mesh/Arms/Root_Jnt/Waist_Jnt/Spine_01_Jnt/Spine_02_Jnt/Clavicle_R_Jnt/Shoulder_R_Jnt/Elbow_R_Jnt/Wrist_R_Jnt/FingerPointer_R_01_Jnt
  - curve:
      serializedVersion: 2
      m_Curve:
      - serializedVersion: 3
        time: 0
        value: {x: 0.041198228, y: 0.0012069184, z: -0.00025803084}
        inSlope: {x: 0, y: 0, z: 0}
        outSlope: {x: 0, y: 0, z: 0}
        tangentMode: 0
        weightedMode: 0
        inWeight: {x: 0.33333334, y: 0.33333334, z: 0.33333334}
        outWeight: {x: 0.33333334, y: 0.33333334, z: 0.33333334}
      m_PreInfinity: 2
      m_PostInfinity: 2
      m_RotationOrder: 4
    path: Thompson_Sub_Mesh/Arms/Root_Jnt/Waist_Jnt/Spine_01_Jnt/Spine_02_Jnt/Clavicle_R_Jnt/Shoulder_R_Jnt/Elbow_R_Jnt/Wrist_R_Jnt/FingerPointer_R_01_Jnt/FingerPointer_R_02_Jnt
  - curve:
      serializedVersion: 2
      m_Curve:
      - serializedVersion: 3
        time: 0
        value: {x: 0.03154241, y: -0.0010005108, z: 0.00023411834}
        inSlope: {x: 0, y: 0, z: 0}
        outSlope: {x: 0, y: 0, z: 0}
        tangentMode: 0
        weightedMode: 0
        inWeight: {x: 0.33333334, y: 0.33333334, z: 0.33333334}
        outWeight: {x: 0.33333334, y: 0.33333334, z: 0.33333334}
      m_PreInfinity: 2
      m_PostInfinity: 2
      m_RotationOrder: 4
    path: Thompson_Sub_Mesh/Arms/Root_Jnt/Waist_Jnt/Spine_01_Jnt/Spine_02_Jnt/Clavicle_R_Jnt/Shoulder_R_Jnt/Elbow_R_Jnt/Wrist_R_Jnt/FingerPointer_R_01_Jnt/FingerPointer_R_02_Jnt/FingerPointer_R_03_Jnt
  - curve:
      serializedVersion: 2
      m_Curve:
      - serializedVersion: 3
        time: 0
        value: {x: 0.117304415, y: -0.030525964, z: 0.033228755}
        inSlope: {x: 0, y: 0, z: 0}
        outSlope: {x: 0, y: 0, z: 0}
        tangentMode: 0
        weightedMode: 0
        inWeight: {x: 0.33333334, y: 0.33333334, z: 0.33333334}
        outWeight: {x: 0.33333334, y: 0.33333334, z: 0.33333334}
      m_PreInfinity: 2
      m_PostInfinity: 2
      m_RotationOrder: 4
    path: Thompson_Sub_Mesh/Arms/Root_Jnt/Waist_Jnt/Spine_01_Jnt/Spine_02_Jnt/Clavicle_R_Jnt/Shoulder_R_Jnt/Elbow_R_Jnt/Wrist_R_Jnt/FingerRing_R_01_Jnt
  - curve:
      serializedVersion: 2
      m_Curve:
      - serializedVersion: 3
        time: 0
        value: {x: 0.038544144, y: 0.030461386, z: -0.00037720613}
        inSlope: {x: 0, y: 0, z: 0}
        outSlope: {x: 0, y: 0, z: 0}
        tangentMode: 0
        weightedMode: 0
        inWeight: {x: 0.33333334, y: 0.33333334, z: 0.33333334}
        outWeight: {x: 0.33333334, y: 0.33333334, z: 0.33333334}
      m_PreInfinity: 2
      m_PostInfinity: 2
      m_RotationOrder: 4
    path: Thompson_Sub_Mesh/Arms/Root_Jnt/Waist_Jnt/Spine_01_Jnt/Spine_02_Jnt/Clavicle_R_Jnt/Shoulder_R_Jnt/Elbow_R_Jnt/Wrist_R_Jnt/FingerThumb_R_01_Jnt
  m_ScaleCurves: []
  m_FloatCurves: []
  m_PPtrCurves: []
  m_SampleRate: 60
  m_WrapMode: 0
  m_Bounds:
    m_Center: {x: 0, y: 0, z: 0}
    m_Extent: {x: 0, y: 0, z: 0}
  m_ClipBindingConstant:
    genericBindings:
    - serializedVersion: 2
      path: 627376563
      attribute: 1
      script: {fileID: 0}
      typeID: 4
      customType: 0
      isPPtrCurve: 0
    - serializedVersion: 2
      path: 627376563
      attribute: 4
      script: {fileID: 0}
      typeID: 4
      customType: 4
      isPPtrCurve: 0
    - serializedVersion: 2
      path: 3678973136
      attribute: 1
      script: {fileID: 0}
      typeID: 4
      customType: 0
      isPPtrCurve: 0
    - serializedVersion: 2
      path: 1758183081
      attribute: 1
      script: {fileID: 0}
      typeID: 4
      customType: 0
      isPPtrCurve: 0
    - serializedVersion: 2
      path: 955672745
      attribute: 1
      script: {fileID: 0}
      typeID: 4
      customType: 0
      isPPtrCurve: 0
    - serializedVersion: 2
      path: 3368632377
      attribute: 1
      script: {fileID: 0}
      typeID: 4
      customType: 0
      isPPtrCurve: 0
    - serializedVersion: 2
      path: 539922209
      attribute: 1
      script: {fileID: 0}
      typeID: 4
      customType: 0
      isPPtrCurve: 0
    - serializedVersion: 2
      path: 2767129826
      attribute: 1
      script: {fileID: 0}
      typeID: 4
      customType: 0
      isPPtrCurve: 0
    - serializedVersion: 2
      path: 1506126405
      attribute: 1
      script: {fileID: 0}
      typeID: 4
      customType: 0
      isPPtrCurve: 0
    - serializedVersion: 2
      path: 3065890713
      attribute: 1
      script: {fileID: 0}
      typeID: 4
      customType: 0
      isPPtrCurve: 0
    - serializedVersion: 2
      path: 1758183081
      attribute: 4
      script: {fileID: 0}
      typeID: 4
      customType: 4
      isPPtrCurve: 0
    - serializedVersion: 2
      path: 955672745
      attribute: 4
      script: {fileID: 0}
      typeID: 4
      customType: 4
      isPPtrCurve: 0
    - serializedVersion: 2
      path: 3368632377
      attribute: 4
      script: {fileID: 0}
      typeID: 4
      customType: 4
      isPPtrCurve: 0
    - serializedVersion: 2
      path: 539922209
      attribute: 4
      script: {fileID: 0}
      typeID: 4
      customType: 4
      isPPtrCurve: 0
    - serializedVersion: 2
      path: 2767129826
      attribute: 4
      script: {fileID: 0}
      typeID: 4
      customType: 4
      isPPtrCurve: 0
    - serializedVersion: 2
      path: 1506126405
      attribute: 4
      script: {fileID: 0}
      typeID: 4
      customType: 4
      isPPtrCurve: 0
    - serializedVersion: 2
      path: 3065890713
      attribute: 4
      script: {fileID: 0}
      typeID: 4
      customType: 4
      isPPtrCurve: 0
    pptrCurveMapping: []
  m_AnimationClipSettings:
    serializedVersion: 2
    m_AdditiveReferencePoseClip: {fileID: 0}
    m_AdditiveReferencePoseTime: 0
    m_StartTime: 0
    m_StopTime: 0.33333334
    m_OrientationOffsetY: 0
    m_Level: 0
    m_CycleOffset: 0
    m_HasAdditiveReferencePose: 0
    m_LoopTime: 0
    m_LoopBlend: 0
    m_LoopBlendOrientation: 0
    m_LoopBlendPositionY: 0
    m_LoopBlendPositionXZ: 0
    m_KeepOriginalOrientation: 0
    m_KeepOriginalPositionY: 1
    m_KeepOriginalPositionXZ: 0
    m_HeightFromFeet: 0
    m_Mirror: 0
  m_EditorCurves:
  - curve:
      serializedVersion: 2
      m_Curve:
      - serializedVersion: 3
        time: 0
        value: 0.321
        inSlope: 0
        outSlope: 0
        tangentMode: 136
        weightedMode: 0
        inWeight: 0.33333334
        outWeight: 0.33333334
      - serializedVersion: 3
        time: 0.33333334
        value: 0.117527395
        inSlope: 0
        outSlope: 0
        tangentMode: 136
        weightedMode: 0
        inWeight: 0.33333334
        outWeight: 0.33333334
      m_PreInfinity: 2
      m_PostInfinity: 2
      m_RotationOrder: 4
    attribute: m_LocalPosition.x
    path: Thompson_Sub_Mesh
    classID: 4
    script: {fileID: 0}
  - curve:
      serializedVersion: 2
      m_Curve:
      - serializedVersion: 3
        time: 0
        value: 0
        inSlope: 0
        outSlope: 0
        tangentMode: 136
        weightedMode: 0
        inWeight: 0.33333334
        outWeight: 0.33333334
      - serializedVersion: 3
        time: 0.33333334
        value: -0.26121482
        inSlope: 0
        outSlope: 0
        tangentMode: 136
        weightedMode: 0
        inWeight: 0.33333334
        outWeight: 0.33333334
      m_PreInfinity: 2
      m_PostInfinity: 2
      m_RotationOrder: 4
    attribute: m_LocalPosition.y
    path: Thompson_Sub_Mesh
    classID: 4
    script: {fileID: 0}
  - curve:
      serializedVersion: 2
      m_Curve:
      - serializedVersion: 3
        time: 0
        value: 0
        inSlope: 0
        outSlope: 0
        tangentMode: 136
        weightedMode: 0
        inWeight: 0.33333334
        outWeight: 0.33333334
      - serializedVersion: 3
        time: 0.33333334
        value: 0.112734824
        inSlope: 0
        outSlope: 0
        tangentMode: 136
        weightedMode: 0
        inWeight: 0.33333334
        outWeight: 0.33333334
      m_PreInfinity: 2
      m_PostInfinity: 2
      m_RotationOrder: 4
    attribute: m_LocalPosition.z
    path: Thompson_Sub_Mesh
    classID: 4
    script: {fileID: 0}
  - curve:
      serializedVersion: 2
      m_Curve:
      - serializedVersion: 3
        time: 0
        value: 0
        inSlope: 0
        outSlope: 0
        tangentMode: 136
        weightedMode: 0
        inWeight: 0.33333334
        outWeight: 0.33333334
      - serializedVersion: 3
        time: 0.33333334
        value: 0
        inSlope: 0
        outSlope: 0
        tangentMode: 136
        weightedMode: 0
        inWeight: 0.33333334
        outWeight: 0.33333334
      m_PreInfinity: 2
      m_PostInfinity: 2
      m_RotationOrder: 4
    attribute: localEulerAnglesRaw.x
    path: Thompson_Sub_Mesh
    classID: 4
    script: {fileID: 0}
  - curve:
      serializedVersion: 2
      m_Curve:
      - serializedVersion: 3
        time: 0
        value: 0
        inSlope: 0
        outSlope: 0
        tangentMode: 136
        weightedMode: 0
        inWeight: 0.33333334
        outWeight: 0.33333334
      - serializedVersion: 3
        time: 0.33333334
        value: -49.493336
        inSlope: 0
        outSlope: 0
        tangentMode: 136
        weightedMode: 0
        inWeight: 0.33333334
        outWeight: 0.33333334
      m_PreInfinity: 2
      m_PostInfinity: 2
      m_RotationOrder: 4
    attribute: localEulerAnglesRaw.y
    path: Thompson_Sub_Mesh
    classID: 4
    script: {fileID: 0}
  - curve:
      serializedVersion: 2
      m_Curve:
      - serializedVersion: 3
        time: 0
        value: 0
        inSlope: 0
        outSlope: 0
        tangentMode: 136
        weightedMode: 0
        inWeight: 0.33333334
        outWeight: 0.33333334
      - serializedVersion: 3
        time: 0.33333334
        value: -49.493336
        inSlope: 0
        outSlope: 0
        tangentMode: 136
        weightedMode: 0
        inWeight: 0.33333334
        outWeight: 0.33333334
      m_PreInfinity: 2
      m_PostInfinity: 2
      m_RotationOrder: 4
    attribute: localEulerAnglesRaw.z
    path: Thompson_Sub_Mesh
    classID: 4
    script: {fileID: 0}
  - curve:
      serializedVersion: 2
      m_Curve:
      - serializedVersion: 3
        time: 0
        value: -0.100918084
        inSlope: 0
        outSlope: 0
        tangentMode: 136
        weightedMode: 0
        inWeight: 0.33333334
        outWeight: 0.33333334
      m_PreInfinity: 2
      m_PostInfinity: 2
      m_RotationOrder: 4
    attribute: m_LocalPosition.x
    path: Thompson_Sub_Mesh/Arms/Root_Jnt/Waist_Jnt/Spine_01_Jnt/Spine_02_Jnt/Clavicle_R_Jnt
    classID: 4
    script: {fileID: 0}
  - curve:
      serializedVersion: 2
      m_Curve:
      - serializedVersion: 3
        time: 0
        value: 0.0812639
        inSlope: 0
        outSlope: 0
        tangentMode: 136
        weightedMode: 0
        inWeight: 0.33333334
        outWeight: 0.33333334
      m_PreInfinity: 2
      m_PostInfinity: 2
      m_RotationOrder: 4
    attribute: m_LocalPosition.y
    path: Thompson_Sub_Mesh/Arms/Root_Jnt/Waist_Jnt/Spine_01_Jnt/Spine_02_Jnt/Clavicle_R_Jnt
    classID: 4
    script: {fileID: 0}
  - curve:
      serializedVersion: 2
      m_Curve:
      - serializedVersion: 3
        time: 0
        value: 0.08585095
        inSlope: 0
        outSlope: 0
        tangentMode: 136
        weightedMode: 0
        inWeight: 0.33333334
        outWeight: 0.33333334
      m_PreInfinity: 2
      m_PostInfinity: 2
      m_RotationOrder: 4
    attribute: m_LocalPosition.z
    path: Thompson_Sub_Mesh/Arms/Root_Jnt/Waist_Jnt/Spine_01_Jnt/Spine_02_Jnt/Clavicle_R_Jnt
    classID: 4
    script: {fileID: 0}
  - curve:
      serializedVersion: 2
      m_Curve:
      - serializedVersion: 3
        time: 0
        value: 0.12508088
        inSlope: 0
        outSlope: 0
        tangentMode: 136
        weightedMode: 0
        inWeight: 0.33333334
        outWeight: 0.33333334
      m_PreInfinity: 2
      m_PostInfinity: 2
      m_RotationOrder: 4
    attribute: m_LocalPosition.x
    path: Thompson_Sub_Mesh/Arms/Root_Jnt/Waist_Jnt/Spine_01_Jnt/Spine_02_Jnt/Clavicle_R_Jnt/Shoulder_R_Jnt/Elbow_R_Jnt/Wrist_R_Jnt/FingerMiddle_R_01_Jnt
    classID: 4
    script: {fileID: 0}
  - curve:
      serializedVersion: 2
      m_Curve:
      - serializedVersion: 3
        time: 0
        value: 0.00036542444
        inSlope: 0
        outSlope: 0
        tangentMode: 136
        weightedMode: 0
        inWeight: 0.33333334
        outWeight: 0.33333334
      m_PreInfinity: 2
      m_PostInfinity: 2
      m_RotationOrder: 4
    attribute: m_LocalPosition.y
    path: Thompson_Sub_Mesh/Arms/Root_Jnt/Waist_Jnt/Spine_01_Jnt/Spine_02_Jnt/Clavicle_R_Jnt/Shoulder_R_Jnt/Elbow_R_Jnt/Wrist_R_Jnt/FingerMiddle_R_01_Jnt
    classID: 4
    script: {fileID: 0}
  - curve:
      serializedVersion: 2
      m_Curve:
      - serializedVersion: 3
        time: 0
        value: 0.026090896
        inSlope: 0
        outSlope: 0
        tangentMode: 136
        weightedMode: 0
        inWeight: 0.33333334
        outWeight: 0.33333334
      m_PreInfinity: 2
      m_PostInfinity: 2
      m_RotationOrder: 4
    attribute: m_LocalPosition.z
    path: Thompson_Sub_Mesh/Arms/Root_Jnt/Waist_Jnt/Spine_01_Jnt/Spine_02_Jnt/Clavicle_R_Jnt/Shoulder_R_Jnt/Elbow_R_Jnt/Wrist_R_Jnt/FingerMiddle_R_01_Jnt
    classID: 4
    script: {fileID: 0}
  - curve:
      serializedVersion: 2
      m_Curve:
      - serializedVersion: 3
        time: 0
        value: 75.507
        inSlope: 0
        outSlope: 0
        tangentMode: 136
        weightedMode: 0
        inWeight: 0.33333334
        outWeight: 0.33333334
      m_PreInfinity: 2
      m_PostInfinity: 2
      m_RotationOrder: 4
    attribute: localEulerAnglesRaw.x
    path: Thompson_Sub_Mesh/Arms/Root_Jnt/Waist_Jnt/Spine_01_Jnt/Spine_02_Jnt/Clavicle_R_Jnt/Shoulder_R_Jnt/Elbow_R_Jnt/Wrist_R_Jnt/FingerMiddle_R_01_Jnt
    classID: 4
    script: {fileID: 0}
  - curve:
      serializedVersion: 2
      m_Curve:
      - serializedVersion: 3
        time: 0
        value: -17.739
        inSlope: 0
        outSlope: 0
        tangentMode: 136
        weightedMode: 0
        inWeight: 0.33333334
        outWeight: 0.33333334
      m_PreInfinity: 2
      m_PostInfinity: 2
      m_RotationOrder: 4
    attribute: localEulerAnglesRaw.y
    path: Thompson_Sub_Mesh/Arms/Root_Jnt/Waist_Jnt/Spine_01_Jnt/Spine_02_Jnt/Clavicle_R_Jnt/Shoulder_R_Jnt/Elbow_R_Jnt/Wrist_R_Jnt/FingerMiddle_R_01_Jnt
    classID: 4
    script: {fileID: 0}
  - curve:
      serializedVersion: 2
      m_Curve:
      - serializedVersion: 3
        time: 0
        value: 60.350002
        inSlope: 0
        outSlope: 0
        tangentMode: 136
        weightedMode: 0
        inWeight: 0.33333334
        outWeight: 0.33333334
      m_PreInfinity: 2
      m_PostInfinity: 2
      m_RotationOrder: 4
    attribute: localEulerAnglesRaw.z
    path: Thompson_Sub_Mesh/Arms/Root_Jnt/Waist_Jnt/Spine_01_Jnt/Spine_02_Jnt/Clavicle_R_Jnt/Shoulder_R_Jnt/Elbow_R_Jnt/Wrist_R_Jnt/FingerMiddle_R_01_Jnt
    classID: 4
    script: {fileID: 0}
  - curve:
      serializedVersion: 2
      m_Curve:
      - serializedVersion: 3
        time: 0
        value: 0.112219356
        inSlope: 0
        outSlope: 0
        tangentMode: 136
        weightedMode: 0
        inWeight: 0.33333334
        outWeight: 0.33333334
      m_PreInfinity: 2
      m_PostInfinity: 2
      m_RotationOrder: 4
    attribute: m_LocalPosition.x
    path: Thompson_Sub_Mesh/Arms/Root_Jnt/Waist_Jnt/Spine_01_Jnt/Spine_02_Jnt/Clavicle_R_Jnt/Shoulder_R_Jnt/Elbow_R_Jnt/Wrist_R_Jnt/FingerPinky_R_01_Jnt
    classID: 4
    script: {fileID: 0}
  - curve:
      serializedVersion: 2
      m_Curve:
      - serializedVersion: 3
        time: 0
        value: -0.0633391
        inSlope: 0
        outSlope: 0
        tangentMode: 136
        weightedMode: 0
        inWeight: 0.33333334
        outWeight: 0.33333334
      m_PreInfinity: 2
      m_PostInfinity: 2
      m_RotationOrder: 4
    attribute: m_LocalPosition.y
    path: Thompson_Sub_Mesh/Arms/Root_Jnt/Waist_Jnt/Spine_01_Jnt/Spine_02_Jnt/Clavicle_R_Jnt/Shoulder_R_Jnt/Elbow_R_Jnt/Wrist_R_Jnt/FingerPinky_R_01_Jnt
    classID: 4
    script: {fileID: 0}
  - curve:
      serializedVersion: 2
      m_Curve:
      - serializedVersion: 3
        time: 0
        value: 0.03770923
        inSlope: 0
        outSlope: 0
        tangentMode: 136
        weightedMode: 0
        inWeight: 0.33333334
        outWeight: 0.33333334
      m_PreInfinity: 2
      m_PostInfinity: 2
      m_RotationOrder: 4
    attribute: m_LocalPosition.z
    path: Thompson_Sub_Mesh/Arms/Root_Jnt/Waist_Jnt/Spine_01_Jnt/Spine_02_Jnt/Clavicle_R_Jnt/Shoulder_R_Jnt/Elbow_R_Jnt/Wrist_R_Jnt/FingerPinky_R_01_Jnt
    classID: 4
    script: {fileID: 0}
  - curve:
      serializedVersion: 2
      m_Curve:
      - serializedVersion: 3
        time: 0
        value: 63.878002
        inSlope: 0
        outSlope: 0
        tangentMode: 136
        weightedMode: 0
        inWeight: 0.33333334
        outWeight: 0.33333334
      m_PreInfinity: 2
      m_PostInfinity: 2
      m_RotationOrder: 4
    attribute: localEulerAnglesRaw.x
    path: Thompson_Sub_Mesh/Arms/Root_Jnt/Waist_Jnt/Spine_01_Jnt/Spine_02_Jnt/Clavicle_R_Jnt/Shoulder_R_Jnt/Elbow_R_Jnt/Wrist_R_Jnt/FingerPinky_R_01_Jnt
    classID: 4
    script: {fileID: 0}
  - curve:
      serializedVersion: 2
      m_Curve:
      - serializedVersion: 3
        time: 0
        value: -36.472
        inSlope: 0
        outSlope: 0
        tangentMode: 136
        weightedMode: 0
        inWeight: 0.33333334
        outWeight: 0.33333334
      m_PreInfinity: 2
      m_PostInfinity: 2
      m_RotationOrder: 4
    attribute: localEulerAnglesRaw.y
    path: Thompson_Sub_Mesh/Arms/Root_Jnt/Waist_Jnt/Spine_01_Jnt/Spine_02_Jnt/Clavicle_R_Jnt/Shoulder_R_Jnt/Elbow_R_Jnt/Wrist_R_Jnt/FingerPinky_R_01_Jnt
    classID: 4
    script: {fileID: 0}
  - curve:
      serializedVersion: 2
      m_Curve:
      - serializedVersion: 3
        time: 0
        value: 61.072002
        inSlope: 0
        outSlope: 0
        tangentMode: 136
        weightedMode: 0
        inWeight: 0.33333334
        outWeight: 0.33333334
      m_PreInfinity: 2
      m_PostInfinity: 2
      m_RotationOrder: 4
    attribute: localEulerAnglesRaw.z
    path: Thompson_Sub_Mesh/Arms/Root_Jnt/Waist_Jnt/Spine_01_Jnt/Spine_02_Jnt/Clavicle_R_Jnt/Shoulder_R_Jnt/Elbow_R_Jnt/Wrist_R_Jnt/FingerPinky_R_01_Jnt
    classID: 4
    script: {fileID: 0}
  - curve:
      serializedVersion: 2
      m_Curve:
      - serializedVersion: 3
        time: 0
        value: 0.12813453
        inSlope: 0
        outSlope: 0
        tangentMode: 136
        weightedMode: 0
        inWeight: 0.33333334
        outWeight: 0.33333334
      m_PreInfinity: 2
      m_PostInfinity: 2
      m_RotationOrder: 4
    attribute: m_LocalPosition.x
    path: Thompson_Sub_Mesh/Arms/Root_Jnt/Waist_Jnt/Spine_01_Jnt/Spine_02_Jnt/Clavicle_R_Jnt/Shoulder_R_Jnt/Elbow_R_Jnt/Wrist_R_Jnt/FingerPointer_R_01_Jnt
    classID: 4
    script: {fileID: 0}
  - curve:
      serializedVersion: 2
      m_Curve:
      - serializedVersion: 3
        time: 0
        value: 0.03427585
        inSlope: 0
        outSlope: 0
        tangentMode: 136
        weightedMode: 0
        inWeight: 0.33333334
        outWeight: 0.33333334
      m_PreInfinity: 2
      m_PostInfinity: 2
      m_RotationOrder: 4
    attribute: m_LocalPosition.y
    path: Thompson_Sub_Mesh/Arms/Root_Jnt/Waist_Jnt/Spine_01_Jnt/Spine_02_Jnt/Clavicle_R_Jnt/Shoulder_R_Jnt/Elbow_R_Jnt/Wrist_R_Jnt/FingerPointer_R_01_Jnt
    classID: 4
    script: {fileID: 0}
  - curve:
      serializedVersion: 2
      m_Curve:
      - serializedVersion: 3
        time: 0
        value: 0.023389824
        inSlope: 0
        outSlope: 0
        tangentMode: 136
        weightedMode: 0
        inWeight: 0.33333334
        outWeight: 0.33333334
      m_PreInfinity: 2
      m_PostInfinity: 2
      m_RotationOrder: 4
    attribute: m_LocalPosition.z
    path: Thompson_Sub_Mesh/Arms/Root_Jnt/Waist_Jnt/Spine_01_Jnt/Spine_02_Jnt/Clavicle_R_Jnt/Shoulder_R_Jnt/Elbow_R_Jnt/Wrist_R_Jnt/FingerPointer_R_01_Jnt
    classID: 4
    script: {fileID: 0}
  - curve:
      serializedVersion: 2
      m_Curve:
      - serializedVersion: 3
        time: 0
        value: 76.491005
        inSlope: 0
        outSlope: 0
        tangentMode: 136
        weightedMode: 0
        inWeight: 0.33333334
        outWeight: 0.33333334
      m_PreInfinity: 2
      m_PostInfinity: 2
      m_RotationOrder: 4
    attribute: localEulerAnglesRaw.x
    path: Thompson_Sub_Mesh/Arms/Root_Jnt/Waist_Jnt/Spine_01_Jnt/Spine_02_Jnt/Clavicle_R_Jnt/Shoulder_R_Jnt/Elbow_R_Jnt/Wrist_R_Jnt/FingerPointer_R_01_Jnt
    classID: 4
    script: {fileID: 0}
  - curve:
      serializedVersion: 2
      m_Curve:
      - serializedVersion: 3
        time: 0
        value: -61.203003
        inSlope: 0
        outSlope: 0
        tangentMode: 136
        weightedMode: 0
        inWeight: 0.33333334
        outWeight: 0.33333334
      m_PreInfinity: 2
      m_PostInfinity: 2
      m_RotationOrder: 4
    attribute: localEulerAnglesRaw.y
    path: Thompson_Sub_Mesh/Arms/Root_Jnt/Waist_Jnt/Spine_01_Jnt/Spine_02_Jnt/Clavicle_R_Jnt/Shoulder_R_Jnt/Elbow_R_Jnt/Wrist_R_Jnt/FingerPointer_R_01_Jnt
    classID: 4
    script: {fileID: 0}
  - curve:
      serializedVersion: 2
      m_Curve:
      - serializedVersion: 3
        time: 0
        value: -26.046001
        inSlope: 0
        outSlope: 0
        tangentMode: 136
        weightedMode: 0
        inWeight: 0.33333334
        outWeight: 0.33333334
      m_PreInfinity: 2
      m_PostInfinity: 2
      m_RotationOrder: 4
    attribute: localEulerAnglesRaw.z
    path: Thompson_Sub_Mesh/Arms/Root_Jnt/Waist_Jnt/Spine_01_Jnt/Spine_02_Jnt/Clavicle_R_Jnt/Shoulder_R_Jnt/Elbow_R_Jnt/Wrist_R_Jnt/FingerPointer_R_01_Jnt
    classID: 4
    script: {fileID: 0}
  - curve:
      serializedVersion: 2
      m_Curve:
      - serializedVersion: 3
        time: 0
        value: 0.041198228
        inSlope: 0
        outSlope: 0
        tangentMode: 136
        weightedMode: 0
        inWeight: 0.33333334
        outWeight: 0.33333334
      m_PreInfinity: 2
      m_PostInfinity: 2
      m_RotationOrder: 4
    attribute: m_LocalPosition.x
    path: Thompson_Sub_Mesh/Arms/Root_Jnt/Waist_Jnt/Spine_01_Jnt/Spine_02_Jnt/Clavicle_R_Jnt/Shoulder_R_Jnt/Elbow_R_Jnt/Wrist_R_Jnt/FingerPointer_R_01_Jnt/FingerPointer_R_02_Jnt
    classID: 4
    script: {fileID: 0}
  - curve:
      serializedVersion: 2
      m_Curve:
      - serializedVersion: 3
        time: 0
        value: 0.0012069184
        inSlope: 0
        outSlope: 0
        tangentMode: 136
        weightedMode: 0
        inWeight: 0.33333334
        outWeight: 0.33333334
      m_PreInfinity: 2
      m_PostInfinity: 2
      m_RotationOrder: 4
    attribute: m_LocalPosition.y
    path: Thompson_Sub_Mesh/Arms/Root_Jnt/Waist_Jnt/Spine_01_Jnt/Spine_02_Jnt/Clavicle_R_Jnt/Shoulder_R_Jnt/Elbow_R_Jnt/Wrist_R_Jnt/FingerPointer_R_01_Jnt/FingerPointer_R_02_Jnt
    classID: 4
    script: {fileID: 0}
  - curve:
      serializedVersion: 2
      m_Curve:
      - serializedVersion: 3
        time: 0
        value: -0.00025803084
        inSlope: 0
        outSlope: 0
        tangentMode: 136
        weightedMode: 0
        inWeight: 0.33333334
        outWeight: 0.33333334
      m_PreInfinity: 2
      m_PostInfinity: 2
      m_RotationOrder: 4
    attribute: m_LocalPosition.z
    path: Thompson_Sub_Mesh/Arms/Root_Jnt/Waist_Jnt/Spine_01_Jnt/Spine_02_Jnt/Clavicle_R_Jnt/Shoulder_R_Jnt/Elbow_R_Jnt/Wrist_R_Jnt/FingerPointer_R_01_Jnt/FingerPointer_R_02_Jnt
    classID: 4
    script: {fileID: 0}
  - curve:
      serializedVersion: 2
      m_Curve:
      - serializedVersion: 3
        time: 0
        value: 0.41300002
        inSlope: 0
        outSlope: 0
        tangentMode: 136
        weightedMode: 0
        inWeight: 0.33333334
        outWeight: 0.33333334
      m_PreInfinity: 2
      m_PostInfinity: 2
      m_RotationOrder: 4
    attribute: localEulerAnglesRaw.x
    path: Thompson_Sub_Mesh/Arms/Root_Jnt/Waist_Jnt/Spine_01_Jnt/Spine_02_Jnt/Clavicle_R_Jnt/Shoulder_R_Jnt/Elbow_R_Jnt/Wrist_R_Jnt/FingerPointer_R_01_Jnt/FingerPointer_R_02_Jnt
    classID: 4
    script: {fileID: 0}
  - curve:
      serializedVersion: 2
      m_Curve:
      - serializedVersion: 3
        time: 0
        value: -0.84300005
        inSlope: 0
        outSlope: 0
        tangentMode: 136
        weightedMode: 0
        inWeight: 0.33333334
        outWeight: 0.33333334
      m_PreInfinity: 2
      m_PostInfinity: 2
      m_RotationOrder: 4
    attribute: localEulerAnglesRaw.y
    path: Thompson_Sub_Mesh/Arms/Root_Jnt/Waist_Jnt/Spine_01_Jnt/Spine_02_Jnt/Clavicle_R_Jnt/Shoulder_R_Jnt/Elbow_R_Jnt/Wrist_R_Jnt/FingerPointer_R_01_Jnt/FingerPointer_R_02_Jnt
    classID: 4
    script: {fileID: 0}
  - curve:
      serializedVersion: 2
      m_Curve:
      - serializedVersion: 3
        time: 0
        value: 25.342001
        inSlope: 0
        outSlope: 0
        tangentMode: 136
        weightedMode: 0
        inWeight: 0.33333334
        outWeight: 0.33333334
      m_PreInfinity: 2
      m_PostInfinity: 2
      m_RotationOrder: 4
    attribute: localEulerAnglesRaw.z
    path: Thompson_Sub_Mesh/Arms/Root_Jnt/Waist_Jnt/Spine_01_Jnt/Spine_02_Jnt/Clavicle_R_Jnt/Shoulder_R_Jnt/Elbow_R_Jnt/Wrist_R_Jnt/FingerPointer_R_01_Jnt/FingerPointer_R_02_Jnt
    classID: 4
    script: {fileID: 0}
  - curve:
      serializedVersion: 2
      m_Curve:
      - serializedVersion: 3
        time: 0
        value: 0.03154241
        inSlope: 0
        outSlope: 0
        tangentMode: 136
        weightedMode: 0
        inWeight: 0.33333334
        outWeight: 0.33333334
      m_PreInfinity: 2
      m_PostInfinity: 2
      m_RotationOrder: 4
    attribute: m_LocalPosition.x
    path: Thompson_Sub_Mesh/Arms/Root_Jnt/Waist_Jnt/Spine_01_Jnt/Spine_02_Jnt/Clavicle_R_Jnt/Shoulder_R_Jnt/Elbow_R_Jnt/Wrist_R_Jnt/FingerPointer_R_01_Jnt/FingerPointer_R_02_Jnt/FingerPointer_R_03_Jnt
    classID: 4
    script: {fileID: 0}
  - curve:
      serializedVersion: 2
      m_Curve:
      - serializedVersion: 3
        time: 0
        value: -0.0010005108
        inSlope: 0
        outSlope: 0
        tangentMode: 136
        weightedMode: 0
        inWeight: 0.33333334
        outWeight: 0.33333334
      m_PreInfinity: 2
      m_PostInfinity: 2
      m_RotationOrder: 4
    attribute: m_LocalPosition.y
    path: Thompson_Sub_Mesh/Arms/Root_Jnt/Waist_Jnt/Spine_01_Jnt/Spine_02_Jnt/Clavicle_R_Jnt/Shoulder_R_Jnt/Elbow_R_Jnt/Wrist_R_Jnt/FingerPointer_R_01_Jnt/FingerPointer_R_02_Jnt/FingerPointer_R_03_Jnt
    classID: 4
    script: {fileID: 0}
  - curve:
      serializedVersion: 2
      m_Curve:
      - serializedVersion: 3
        time: 0
        value: 0.00023411834
        inSlope: 0
        outSlope: 0
        tangentMode: 136
        weightedMode: 0
        inWeight: 0.33333334
        outWeight: 0.33333334
      m_PreInfinity: 2
      m_PostInfinity: 2
      m_RotationOrder: 4
    attribute: m_LocalPosition.z
    path: Thompson_Sub_Mesh/Arms/Root_Jnt/Waist_Jnt/Spine_01_Jnt/Spine_02_Jnt/Clavicle_R_Jnt/Shoulder_R_Jnt/Elbow_R_Jnt/Wrist_R_Jnt/FingerPointer_R_01_Jnt/FingerPointer_R_02_Jnt/FingerPointer_R_03_Jnt
    classID: 4
    script: {fileID: 0}
  - curve:
      serializedVersion: 2
      m_Curve:
      - serializedVersion: 3
        time: 0
        value: -0.77800006
        inSlope: 0
        outSlope: 0
        tangentMode: 136
        weightedMode: 0
        inWeight: 0.33333334
        outWeight: 0.33333334
      m_PreInfinity: 2
      m_PostInfinity: 2
      m_RotationOrder: 4
    attribute: localEulerAnglesRaw.x
    path: Thompson_Sub_Mesh/Arms/Root_Jnt/Waist_Jnt/Spine_01_Jnt/Spine_02_Jnt/Clavicle_R_Jnt/Shoulder_R_Jnt/Elbow_R_Jnt/Wrist_R_Jnt/FingerPointer_R_01_Jnt/FingerPointer_R_02_Jnt/FingerPointer_R_03_Jnt
    classID: 4
    script: {fileID: 0}
  - curve:
      serializedVersion: 2
      m_Curve:
      - serializedVersion: 3
        time: 0
        value: -0.24300002
        inSlope: 0
        outSlope: 0
        tangentMode: 136
        weightedMode: 0
        inWeight: 0.33333334
        outWeight: 0.33333334
      m_PreInfinity: 2
      m_PostInfinity: 2
      m_RotationOrder: 4
    attribute: localEulerAnglesRaw.y
    path: Thompson_Sub_Mesh/Arms/Root_Jnt/Waist_Jnt/Spine_01_Jnt/Spine_02_Jnt/Clavicle_R_Jnt/Shoulder_R_Jnt/Elbow_R_Jnt/Wrist_R_Jnt/FingerPointer_R_01_Jnt/FingerPointer_R_02_Jnt/FingerPointer_R_03_Jnt
    classID: 4
    script: {fileID: 0}
  - curve:
      serializedVersion: 2
      m_Curve:
      - serializedVersion: 3
        time: 0
        value: 21.134
        inSlope: 0
        outSlope: 0
        tangentMode: 136
        weightedMode: 0
        inWeight: 0.33333334
        outWeight: 0.33333334
      m_PreInfinity: 2
      m_PostInfinity: 2
      m_RotationOrder: 4
    attribute: localEulerAnglesRaw.z
    path: Thompson_Sub_Mesh/Arms/Root_Jnt/Waist_Jnt/Spine_01_Jnt/Spine_02_Jnt/Clavicle_R_Jnt/Shoulder_R_Jnt/Elbow_R_Jnt/Wrist_R_Jnt/FingerPointer_R_01_Jnt/FingerPointer_R_02_Jnt/FingerPointer_R_03_Jnt
    classID: 4
    script: {fileID: 0}
  - curve:
      serializedVersion: 2
      m_Curve:
      - serializedVersion: 3
        time: 0
        value: 0.117304415
        inSlope: 0
        outSlope: 0
        tangentMode: 136
        weightedMode: 0
        inWeight: 0.33333334
        outWeight: 0.33333334
      m_PreInfinity: 2
      m_PostInfinity: 2
      m_RotationOrder: 4
    attribute: m_LocalPosition.x
    path: Thompson_Sub_Mesh/Arms/Root_Jnt/Waist_Jnt/Spine_01_Jnt/Spine_02_Jnt/Clavicle_R_Jnt/Shoulder_R_Jnt/Elbow_R_Jnt/Wrist_R_Jnt/FingerRing_R_01_Jnt
    classID: 4
    script: {fileID: 0}
  - curve:
      serializedVersion: 2
      m_Curve:
      - serializedVersion: 3
        time: 0
        value: -0.030525964
        inSlope: 0
        outSlope: 0
        tangentMode: 136
        weightedMode: 0
        inWeight: 0.33333334
        outWeight: 0.33333334
      m_PreInfinity: 2
      m_PostInfinity: 2
      m_RotationOrder: 4
    attribute: m_LocalPosition.y
    path: Thompson_Sub_Mesh/Arms/Root_Jnt/Waist_Jnt/Spine_01_Jnt/Spine_02_Jnt/Clavicle_R_Jnt/Shoulder_R_Jnt/Elbow_R_Jnt/Wrist_R_Jnt/FingerRing_R_01_Jnt
    classID: 4
    script: {fileID: 0}
  - curve:
      serializedVersion: 2
      m_Curve:
      - serializedVersion: 3
        time: 0
        value: 0.033228755
        inSlope: 0
        outSlope: 0
        tangentMode: 136
        weightedMode: 0
        inWeight: 0.33333334
        outWeight: 0.33333334
      m_PreInfinity: 2
      m_PostInfinity: 2
      m_RotationOrder: 4
    attribute: m_LocalPosition.z
    path: Thompson_Sub_Mesh/Arms/Root_Jnt/Waist_Jnt/Spine_01_Jnt/Spine_02_Jnt/Clavicle_R_Jnt/Shoulder_R_Jnt/Elbow_R_Jnt/Wrist_R_Jnt/FingerRing_R_01_Jnt
    classID: 4
    script: {fileID: 0}
  - curve:
      serializedVersion: 2
      m_Curve:
      - serializedVersion: 3
        time: 0
        value: 69.990005
        inSlope: 0
        outSlope: 0
        tangentMode: 136
        weightedMode: 0
        inWeight: 0.33333334
        outWeight: 0.33333334
      m_PreInfinity: 2
      m_PostInfinity: 2
      m_RotationOrder: 4
    attribute: localEulerAnglesRaw.x
    path: Thompson_Sub_Mesh/Arms/Root_Jnt/Waist_Jnt/Spine_01_Jnt/Spine_02_Jnt/Clavicle_R_Jnt/Shoulder_R_Jnt/Elbow_R_Jnt/Wrist_R_Jnt/FingerRing_R_01_Jnt
    classID: 4
    script: {fileID: 0}
  - curve:
      serializedVersion: 2
      m_Curve:
      - serializedVersion: 3
        time: 0
        value: -21.143002
        inSlope: 0
        outSlope: 0
        tangentMode: 136
        weightedMode: 0
        inWeight: 0.33333334
        outWeight: 0.33333334
      m_PreInfinity: 2
      m_PostInfinity: 2
      m_RotationOrder: 4
    attribute: localEulerAnglesRaw.y
    path: Thompson_Sub_Mesh/Arms/Root_Jnt/Waist_Jnt/Spine_01_Jnt/Spine_02_Jnt/Clavicle_R_Jnt/Shoulder_R_Jnt/Elbow_R_Jnt/Wrist_R_Jnt/FingerRing_R_01_Jnt
    classID: 4
    script: {fileID: 0}
  - curve:
      serializedVersion: 2
      m_Curve:
      - serializedVersion: 3
        time: 0
        value: 70.911
        inSlope: 0
        outSlope: 0
        tangentMode: 136
        weightedMode: 0
        inWeight: 0.33333334
        outWeight: 0.33333334
      m_PreInfinity: 2
      m_PostInfinity: 2
      m_RotationOrder: 4
    attribute: localEulerAnglesRaw.z
    path: Thompson_Sub_Mesh/Arms/Root_Jnt/Waist_Jnt/Spine_01_Jnt/Spine_02_Jnt/Clavicle_R_Jnt/Shoulder_R_Jnt/Elbow_R_Jnt/Wrist_R_Jnt/FingerRing_R_01_Jnt
    classID: 4
    script: {fileID: 0}
  - curve:
      serializedVersion: 2
      m_Curve:
      - serializedVersion: 3
        time: 0
        value: 0.038544144
        inSlope: 0
        outSlope: 0
        tangentMode: 136
        weightedMode: 0
        inWeight: 0.33333334
        outWeight: 0.33333334
      m_PreInfinity: 2
      m_PostInfinity: 2
      m_RotationOrder: 4
    attribute: m_LocalPosition.x
    path: Thompson_Sub_Mesh/Arms/Root_Jnt/Waist_Jnt/Spine_01_Jnt/Spine_02_Jnt/Clavicle_R_Jnt/Shoulder_R_Jnt/Elbow_R_Jnt/Wrist_R_Jnt/FingerThumb_R_01_Jnt
    classID: 4
    script: {fileID: 0}
  - curve:
      serializedVersion: 2
      m_Curve:
      - serializedVersion: 3
        time: 0
        value: 0.030461386
        inSlope: 0
        outSlope: 0
        tangentMode: 136
        weightedMode: 0
        inWeight: 0.33333334
        outWeight: 0.33333334
      m_PreInfinity: 2
      m_PostInfinity: 2
      m_RotationOrder: 4
    attribute: m_LocalPosition.y
    path: Thompson_Sub_Mesh/Arms/Root_Jnt/Waist_Jnt/Spine_01_Jnt/Spine_02_Jnt/Clavicle_R_Jnt/Shoulder_R_Jnt/Elbow_R_Jnt/Wrist_R_Jnt/FingerThumb_R_01_Jnt
    classID: 4
    script: {fileID: 0}
  - curve:
      serializedVersion: 2
      m_Curve:
      - serializedVersion: 3
        time: 0
        value: -0.00037720613
        inSlope: 0
        outSlope: 0
        tangentMode: 136
        weightedMode: 0
        inWeight: 0.33333334
        outWeight: 0.33333334
      m_PreInfinity: 2
      m_PostInfinity: 2
      m_RotationOrder: 4
    attribute: m_LocalPosition.z
    path: Thompson_Sub_Mesh/Arms/Root_Jnt/Waist_Jnt/Spine_01_Jnt/Spine_02_Jnt/Clavicle_R_Jnt/Shoulder_R_Jnt/Elbow_R_Jnt/Wrist_R_Jnt/FingerThumb_R_01_Jnt
    classID: 4
    script: {fileID: 0}
  - curve:
      serializedVersion: 2
      m_Curve:
      - serializedVersion: 3
        time: 0
        value: -20.765001
        inSlope: 0
        outSlope: 0
        tangentMode: 136
        weightedMode: 0
        inWeight: 0.33333334
        outWeight: 0.33333334
      m_PreInfinity: 2
      m_PostInfinity: 2
      m_RotationOrder: 4
    attribute: localEulerAnglesRaw.x
    path: Thompson_Sub_Mesh/Arms/Root_Jnt/Waist_Jnt/Spine_01_Jnt/Spine_02_Jnt/Clavicle_R_Jnt/Shoulder_R_Jnt/Elbow_R_Jnt/Wrist_R_Jnt/FingerThumb_R_01_Jnt
    classID: 4
    script: {fileID: 0}
  - curve:
      serializedVersion: 2
      m_Curve:
      - serializedVersion: 3
        time: 0
        value: 113.76101
        inSlope: 0
        outSlope: 0
        tangentMode: 136
        weightedMode: 0
        inWeight: 0.33333334
        outWeight: 0.33333334
      m_PreInfinity: 2
      m_PostInfinity: 2
      m_RotationOrder: 4
    attribute: localEulerAnglesRaw.y
    path: Thompson_Sub_Mesh/Arms/Root_Jnt/Waist_Jnt/Spine_01_Jnt/Spine_02_Jnt/Clavicle_R_Jnt/Shoulder_R_Jnt/Elbow_R_Jnt/Wrist_R_Jnt/FingerThumb_R_01_Jnt
    classID: 4
    script: {fileID: 0}
  - curve:
      serializedVersion: 2
      m_Curve:
      - serializedVersion: 3
        time: 0
        value: 139.81201
        inSlope: 0
        outSlope: 0
        tangentMode: 136
        weightedMode: 0
        inWeight: 0.33333334
        outWeight: 0.33333334
      m_PreInfinity: 2
      m_PostInfinity: 2
      m_RotationOrder: 4
    attribute: localEulerAnglesRaw.z
    path: Thompson_Sub_Mesh/Arms/Root_Jnt/Waist_Jnt/Spine_01_Jnt/Spine_02_Jnt/Clavicle_R_Jnt/Shoulder_R_Jnt/Elbow_R_Jnt/Wrist_R_Jnt/FingerThumb_R_01_Jnt
    classID: 4
    script: {fileID: 0}
  m_EulerEditorCurves:
  - curve:
      serializedVersion: 2
      m_Curve: []
      m_PreInfinity: 2
      m_PostInfinity: 2
      m_RotationOrder: 4
    attribute: m_LocalEulerAngles.x
    path: Thompson_Sub_Mesh
    classID: 4
    script: {fileID: 0}
  - curve:
      serializedVersion: 2
      m_Curve: []
      m_PreInfinity: 2
      m_PostInfinity: 2
      m_RotationOrder: 4
    attribute: m_LocalEulerAngles.y
    path: Thompson_Sub_Mesh
    classID: 4
    script: {fileID: 0}
  - curve:
      serializedVersion: 2
      m_Curve: []
      m_PreInfinity: 2
      m_PostInfinity: 2
      m_RotationOrder: 4
    attribute: m_LocalEulerAngles.z
    path: Thompson_Sub_Mesh
    classID: 4
    script: {fileID: 0}
  - curve:
      serializedVersion: 2
      m_Curve: []
      m_PreInfinity: 2
      m_PostInfinity: 2
      m_RotationOrder: 4
    attribute: m_LocalEulerAngles.x
    path: Thompson_Sub_Mesh/Arms/Root_Jnt/Waist_Jnt/Spine_01_Jnt/Spine_02_Jnt/Clavicle_R_Jnt/Shoulder_R_Jnt/Elbow_R_Jnt/Wrist_R_Jnt/FingerMiddle_R_01_Jnt
    classID: 4
    script: {fileID: 0}
  - curve:
      serializedVersion: 2
      m_Curve: []
      m_PreInfinity: 2
      m_PostInfinity: 2
      m_RotationOrder: 4
    attribute: m_LocalEulerAngles.y
    path: Thompson_Sub_Mesh/Arms/Root_Jnt/Waist_Jnt/Spine_01_Jnt/Spine_02_Jnt/Clavicle_R_Jnt/Shoulder_R_Jnt/Elbow_R_Jnt/Wrist_R_Jnt/FingerMiddle_R_01_Jnt
    classID: 4
    script: {fileID: 0}
  - curve:
      serializedVersion: 2
      m_Curve: []
      m_PreInfinity: 2
      m_PostInfinity: 2
      m_RotationOrder: 4
    attribute: m_LocalEulerAngles.z
    path: Thompson_Sub_Mesh/Arms/Root_Jnt/Waist_Jnt/Spine_01_Jnt/Spine_02_Jnt/Clavicle_R_Jnt/Shoulder_R_Jnt/Elbow_R_Jnt/Wrist_R_Jnt/FingerMiddle_R_01_Jnt
    classID: 4
    script: {fileID: 0}
  - curve:
      serializedVersion: 2
      m_Curve: []
      m_PreInfinity: 2
      m_PostInfinity: 2
      m_RotationOrder: 4
    attribute: m_LocalEulerAngles.x
    path: Thompson_Sub_Mesh/Arms/Root_Jnt/Waist_Jnt/Spine_01_Jnt/Spine_02_Jnt/Clavicle_R_Jnt/Shoulder_R_Jnt/Elbow_R_Jnt/Wrist_R_Jnt/FingerPinky_R_01_Jnt
    classID: 4
    script: {fileID: 0}
  - curve:
      serializedVersion: 2
      m_Curve: []
      m_PreInfinity: 2
      m_PostInfinity: 2
      m_RotationOrder: 4
    attribute: m_LocalEulerAngles.y
    path: Thompson_Sub_Mesh/Arms/Root_Jnt/Waist_Jnt/Spine_01_Jnt/Spine_02_Jnt/Clavicle_R_Jnt/Shoulder_R_Jnt/Elbow_R_Jnt/Wrist_R_Jnt/FingerPinky_R_01_Jnt
    classID: 4
    script: {fileID: 0}
  - curve:
      serializedVersion: 2
      m_Curve: []
      m_PreInfinity: 2
      m_PostInfinity: 2
      m_RotationOrder: 4
    attribute: m_LocalEulerAngles.z
    path: Thompson_Sub_Mesh/Arms/Root_Jnt/Waist_Jnt/Spine_01_Jnt/Spine_02_Jnt/Clavicle_R_Jnt/Shoulder_R_Jnt/Elbow_R_Jnt/Wrist_R_Jnt/FingerPinky_R_01_Jnt
    classID: 4
    script: {fileID: 0}
  - curve:
      serializedVersion: 2
      m_Curve: []
      m_PreInfinity: 2
      m_PostInfinity: 2
      m_RotationOrder: 4
    attribute: m_LocalEulerAngles.x
    path: Thompson_Sub_Mesh/Arms/Root_Jnt/Waist_Jnt/Spine_01_Jnt/Spine_02_Jnt/Clavicle_R_Jnt/Shoulder_R_Jnt/Elbow_R_Jnt/Wrist_R_Jnt/FingerPointer_R_01_Jnt
    classID: 4
    script: {fileID: 0}
  - curve:
      serializedVersion: 2
      m_Curve: []
      m_PreInfinity: 2
      m_PostInfinity: 2
      m_RotationOrder: 4
    attribute: m_LocalEulerAngles.y
    path: Thompson_Sub_Mesh/Arms/Root_Jnt/Waist_Jnt/Spine_01_Jnt/Spine_02_Jnt/Clavicle_R_Jnt/Shoulder_R_Jnt/Elbow_R_Jnt/Wrist_R_Jnt/FingerPointer_R_01_Jnt
    classID: 4
    script: {fileID: 0}
  - curve:
      serializedVersion: 2
      m_Curve: []
      m_PreInfinity: 2
      m_PostInfinity: 2
      m_RotationOrder: 4
    attribute: m_LocalEulerAngles.z
    path: Thompson_Sub_Mesh/Arms/Root_Jnt/Waist_Jnt/Spine_01_Jnt/Spine_02_Jnt/Clavicle_R_Jnt/Shoulder_R_Jnt/Elbow_R_Jnt/Wrist_R_Jnt/FingerPointer_R_01_Jnt
    classID: 4
    script: {fileID: 0}
  - curve:
      serializedVersion: 2
      m_Curve: []
      m_PreInfinity: 2
      m_PostInfinity: 2
      m_RotationOrder: 4
    attribute: m_LocalEulerAngles.x
    path: Thompson_Sub_Mesh/Arms/Root_Jnt/Waist_Jnt/Spine_01_Jnt/Spine_02_Jnt/Clavicle_R_Jnt/Shoulder_R_Jnt/Elbow_R_Jnt/Wrist_R_Jnt/FingerPointer_R_01_Jnt/FingerPointer_R_02_Jnt
    classID: 4
    script: {fileID: 0}
  - curve:
      serializedVersion: 2
      m_Curve: []
      m_PreInfinity: 2
      m_PostInfinity: 2
      m_RotationOrder: 4
    attribute: m_LocalEulerAngles.y
    path: Thompson_Sub_Mesh/Arms/Root_Jnt/Waist_Jnt/Spine_01_Jnt/Spine_02_Jnt/Clavicle_R_Jnt/Shoulder_R_Jnt/Elbow_R_Jnt/Wrist_R_Jnt/FingerPointer_R_01_Jnt/FingerPointer_R_02_Jnt
    classID: 4
    script: {fileID: 0}
  - curve:
      serializedVersion: 2
      m_Curve: []
      m_PreInfinity: 2
      m_PostInfinity: 2
      m_RotationOrder: 4
    attribute: m_LocalEulerAngles.z
    path: Thompson_Sub_Mesh/Arms/Root_Jnt/Waist_Jnt/Spine_01_Jnt/Spine_02_Jnt/Clavicle_R_Jnt/Shoulder_R_Jnt/Elbow_R_Jnt/Wrist_R_Jnt/FingerPointer_R_01_Jnt/FingerPointer_R_02_Jnt
    classID: 4
    script: {fileID: 0}
  - curve:
      serializedVersion: 2
      m_Curve: []
      m_PreInfinity: 2
      m_PostInfinity: 2
      m_RotationOrder: 4
    attribute: m_LocalEulerAngles.x
    path: Thompson_Sub_Mesh/Arms/Root_Jnt/Waist_Jnt/Spine_01_Jnt/Spine_02_Jnt/Clavicle_R_Jnt/Shoulder_R_Jnt/Elbow_R_Jnt/Wrist_R_Jnt/FingerPointer_R_01_Jnt/FingerPointer_R_02_Jnt/FingerPointer_R_03_Jnt
    classID: 4
    script: {fileID: 0}
  - curve:
      serializedVersion: 2
      m_Curve: []
      m_PreInfinity: 2
      m_PostInfinity: 2
      m_RotationOrder: 4
    attribute: m_LocalEulerAngles.y
    path: Thompson_Sub_Mesh/Arms/Root_Jnt/Waist_Jnt/Spine_01_Jnt/Spine_02_Jnt/Clavicle_R_Jnt/Shoulder_R_Jnt/Elbow_R_Jnt/Wrist_R_Jnt/FingerPointer_R_01_Jnt/FingerPointer_R_02_Jnt/FingerPointer_R_03_Jnt
    classID: 4
    script: {fileID: 0}
  - curve:
      serializedVersion: 2
      m_Curve: []
      m_PreInfinity: 2
      m_PostInfinity: 2
      m_RotationOrder: 4
    attribute: m_LocalEulerAngles.z
    path: Thompson_Sub_Mesh/Arms/Root_Jnt/Waist_Jnt/Spine_01_Jnt/Spine_02_Jnt/Clavicle_R_Jnt/Shoulder_R_Jnt/Elbow_R_Jnt/Wrist_R_Jnt/FingerPointer_R_01_Jnt/FingerPointer_R_02_Jnt/FingerPointer_R_03_Jnt
    classID: 4
    script: {fileID: 0}
  - curve:
      serializedVersion: 2
      m_Curve: []
      m_PreInfinity: 2
      m_PostInfinity: 2
      m_RotationOrder: 4
    attribute: m_LocalEulerAngles.x
    path: Thompson_Sub_Mesh/Arms/Root_Jnt/Waist_Jnt/Spine_01_Jnt/Spine_02_Jnt/Clavicle_R_Jnt/Shoulder_R_Jnt/Elbow_R_Jnt/Wrist_R_Jnt/FingerRing_R_01_Jnt
    classID: 4
    script: {fileID: 0}
  - curve:
      serializedVersion: 2
      m_Curve: []
      m_PreInfinity: 2
      m_PostInfinity: 2
      m_RotationOrder: 4
    attribute: m_LocalEulerAngles.y
    path: Thompson_Sub_Mesh/Arms/Root_Jnt/Waist_Jnt/Spine_01_Jnt/Spine_02_Jnt/Clavicle_R_Jnt/Shoulder_R_Jnt/Elbow_R_Jnt/Wrist_R_Jnt/FingerRing_R_01_Jnt
    classID: 4
    script: {fileID: 0}
  - curve:
      serializedVersion: 2
      m_Curve: []
      m_PreInfinity: 2
      m_PostInfinity: 2
      m_RotationOrder: 4
    attribute: m_LocalEulerAngles.z
    path: Thompson_Sub_Mesh/Arms/Root_Jnt/Waist_Jnt/Spine_01_Jnt/Spine_02_Jnt/Clavicle_R_Jnt/Shoulder_R_Jnt/Elbow_R_Jnt/Wrist_R_Jnt/FingerRing_R_01_Jnt
    classID: 4
    script: {fileID: 0}
  - curve:
      serializedVersion: 2
      m_Curve: []
      m_PreInfinity: 2
      m_PostInfinity: 2
      m_RotationOrder: 4
    attribute: m_LocalEulerAngles.x
    path: Thompson_Sub_Mesh/Arms/Root_Jnt/Waist_Jnt/Spine_01_Jnt/Spine_02_Jnt/Clavicle_R_Jnt/Shoulder_R_Jnt/Elbow_R_Jnt/Wrist_R_Jnt/FingerThumb_R_01_Jnt
    classID: 4
    script: {fileID: 0}
  - curve:
      serializedVersion: 2
      m_Curve: []
      m_PreInfinity: 2
      m_PostInfinity: 2
      m_RotationOrder: 4
    attribute: m_LocalEulerAngles.y
    path: Thompson_Sub_Mesh/Arms/Root_Jnt/Waist_Jnt/Spine_01_Jnt/Spine_02_Jnt/Clavicle_R_Jnt/Shoulder_R_Jnt/Elbow_R_Jnt/Wrist_R_Jnt/FingerThumb_R_01_Jnt
    classID: 4
    script: {fileID: 0}
  - curve:
      serializedVersion: 2
      m_Curve: []
      m_PreInfinity: 2
      m_PostInfinity: 2
      m_RotationOrder: 4
    attribute: m_LocalEulerAngles.z
    path: Thompson_Sub_Mesh/Arms/Root_Jnt/Waist_Jnt/Spine_01_Jnt/Spine_02_Jnt/Clavicle_R_Jnt/Shoulder_R_Jnt/Elbow_R_Jnt/Wrist_R_Jnt/FingerThumb_R_01_Jnt
    classID: 4
    script: {fileID: 0}
  m_HasGenericRootTransform: 0
  m_HasMotionFloatCurves: 0
  m_Events:
  - time: 0
    functionName: PlayUnequipSound
    data: 
    objectReferenceParameter: {fileID: 0}
    floatParameter: 0
    intParameter: 0
    messageOptions: 0
  - time: 0.33333334
    functionName: CanFire
    data: 
    objectReferenceParameter: {fileID: 0}
    floatParameter: 0
    intParameter: 0
    messageOptions: 0
